{
 "coreInit": "--federates=1",
 "coreName": "PV_162 Federate",
 "coreType": "zmq",
 "name": "PV_162",
 "publications": [
  {
   "global": true,
   "name": "PV_162P0"
  },
  {
   "global": true,
   "name": "PV_162P1"
  },
  {
   "global": true,
   "name": "PV_162P2"
  },
  {
   "global": true,
   "name": "PV_162P3"
  },
  {
   "global": true,
   "name": "PV_162P4"
  },
  {
   "global": true,
   "name": "PV_162P5"
  },
  {
   "global": true,
   "name": "PV_162P6"
  },
  {
   "global": true,
   "name": "PV_162P7"
  },
  {
   "global": true,
   "name": "PV_162P8"
  },
  {
   "global": true,
   "name": "PV_162P9"
  },
  {
   "global": true,
   "name": "PV_162P10"
  },
  {
   "global": true,
   "name": "PV_162P11"
  },
  {
   "global": true,
   "name": "PV_162P12"
  },
  {
   "global": true,
   "name": "PV_162P13"
  },
  {
   "global": true,
   "name": "PV_162P14"
  },
  {
   "global": true,
   "name": "PV_162P15"
  },
  {
   "global": true,
   "name": "PV_162P16"
  },
  {
   "global": true,
   "name": "PV_162P17"
  },
  {
   "global": true,
   "name": "PV_162P18"
  },
  {
   "global": true,
   "name": "PV_162P19"
  }
 ],
 "subscriptions": [],
 "period": 60,
 "key": ""
}