{
 "coreInit": "--federates=1",
 "coreName": "PV_182 Federate",
 "coreType": "zmq",
 "name": "PV_182",
 "publications": [
  {
   "global": true,
   "name": "PV_182P0"
  },
  {
   "global": true,
   "name": "PV_182P1"
  },
  {
   "global": true,
   "name": "PV_182P2"
  },
  {
   "global": true,
   "name": "PV_182P3"
  },
  {
   "global": true,
   "name": "PV_182P4"
  },
  {
   "global": true,
   "name": "PV_182P5"
  },
  {
   "global": true,
   "name": "PV_182P6"
  },
  {
   "global": true,
   "name": "PV_182P7"
  },
  {
   "global": true,
   "name": "PV_182P8"
  },
  {
   "global": true,
   "name": "PV_182P9"
  },
  {
   "global": true,
   "name": "PV_182P10"
  },
  {
   "global": true,
   "name": "PV_182P11"
  },
  {
   "global": true,
   "name": "PV_182P12"
  },
  {
   "global": true,
   "name": "PV_182P13"
  },
  {
   "global": true,
   "name": "PV_182P14"
  },
  {
   "global": true,
   "name": "PV_182P15"
  },
  {
   "global": true,
   "name": "PV_182P16"
  },
  {
   "global": true,
   "name": "PV_182P17"
  },
  {
   "global": true,
   "name": "PV_182P18"
  },
  {
   "global": true,
   "name": "PV_182P19"
  }
 ],
 "subscriptions": [],
 "period": 60,
 "key": ""
}