{
 "coreInit": "--federates=1",
 "coreName": "PV_171 Federate",
 "coreType": "zmq",
 "name": "PV_171",
 "publications": [
  {
   "global": true,
   "name": "PV_171P0"
  },
  {
   "global": true,
   "name": "PV_171P1"
  },
  {
   "global": true,
   "name": "PV_171P2"
  },
  {
   "global": true,
   "name": "PV_171P3"
  },
  {
   "global": true,
   "name": "PV_171P4"
  },
  {
   "global": true,
   "name": "PV_171P5"
  },
  {
   "global": true,
   "name": "PV_171P6"
  },
  {
   "global": true,
   "name": "PV_171P7"
  },
  {
   "global": true,
   "name": "PV_171P8"
  },
  {
   "global": true,
   "name": "PV_171P9"
  },
  {
   "global": true,
   "name": "PV_171P10"
  },
  {
   "global": true,
   "name": "PV_171P11"
  },
  {
   "global": true,
   "name": "PV_171P12"
  },
  {
   "global": true,
   "name": "PV_171P13"
  },
  {
   "global": true,
   "name": "PV_171P14"
  },
  {
   "global": true,
   "name": "PV_171P15"
  },
  {
   "global": true,
   "name": "PV_171P16"
  },
  {
   "global": true,
   "name": "PV_171P17"
  },
  {
   "global": true,
   "name": "PV_171P18"
  },
  {
   "global": true,
   "name": "PV_171P19"
  }
 ],
 "subscriptions": [],
 "period": 60,
 "key": ""
}