{
 "coreInit": "--federates=1",
 "coreName": "PV_103 Federate",
 "coreType": "zmq",
 "name": "PV_103",
 "publications": [
  {
   "global": true,
   "name": "PV_103P0"
  },
  {
   "global": true,
   "name": "PV_103P1"
  },
  {
   "global": true,
   "name": "PV_103P2"
  },
  {
   "global": true,
   "name": "PV_103P3"
  },
  {
   "global": true,
   "name": "PV_103P4"
  },
  {
   "global": true,
   "name": "PV_103P5"
  },
  {
   "global": true,
   "name": "PV_103P6"
  },
  {
   "global": true,
   "name": "PV_103P7"
  },
  {
   "global": true,
   "name": "PV_103P8"
  },
  {
   "global": true,
   "name": "PV_103P9"
  },
  {
   "global": true,
   "name": "PV_103P10"
  },
  {
   "global": true,
   "name": "PV_103P11"
  },
  {
   "global": true,
   "name": "PV_103P12"
  },
  {
   "global": true,
   "name": "PV_103P13"
  },
  {
   "global": true,
   "name": "PV_103P14"
  },
  {
   "global": true,
   "name": "PV_103P15"
  },
  {
   "global": true,
   "name": "PV_103P16"
  },
  {
   "global": true,
   "name": "PV_103P17"
  },
  {
   "global": true,
   "name": "PV_103P18"
  },
  {
   "global": true,
   "name": "PV_103P19"
  }
 ],
 "subscriptions": [],
 "period": 60,
 "key": ""
}