{
 "coreInit": "--federates=1",
 "coreName": "PV_190 Federate",
 "coreType": "zmq",
 "name": "PV_190",
 "publications": [
  {
   "global": true,
   "name": "PV_190P0"
  },
  {
   "global": true,
   "name": "PV_190P1"
  },
  {
   "global": true,
   "name": "PV_190P2"
  },
  {
   "global": true,
   "name": "PV_190P3"
  },
  {
   "global": true,
   "name": "PV_190P4"
  },
  {
   "global": true,
   "name": "PV_190P5"
  },
  {
   "global": true,
   "name": "PV_190P6"
  },
  {
   "global": true,
   "name": "PV_190P7"
  },
  {
   "global": true,
   "name": "PV_190P8"
  },
  {
   "global": true,
   "name": "PV_190P9"
  },
  {
   "global": true,
   "name": "PV_190P10"
  },
  {
   "global": true,
   "name": "PV_190P11"
  },
  {
   "global": true,
   "name": "PV_190P12"
  },
  {
   "global": true,
   "name": "PV_190P13"
  },
  {
   "global": true,
   "name": "PV_190P14"
  },
  {
   "global": true,
   "name": "PV_190P15"
  },
  {
   "global": true,
   "name": "PV_190P16"
  },
  {
   "global": true,
   "name": "PV_190P17"
  },
  {
   "global": true,
   "name": "PV_190P18"
  },
  {
   "global": true,
   "name": "PV_190P19"
  }
 ],
 "subscriptions": [],
 "period": 60,
 "key": ""
}