{
 "coreInit": "--federates=1",
 "coreName": "PV_118 Federate",
 "coreType": "zmq",
 "name": "PV_118",
 "publications": [
  {
   "global": true,
   "name": "PV_118P0"
  },
  {
   "global": true,
   "name": "PV_118P1"
  },
  {
   "global": true,
   "name": "PV_118P2"
  },
  {
   "global": true,
   "name": "PV_118P3"
  },
  {
   "global": true,
   "name": "PV_118P4"
  },
  {
   "global": true,
   "name": "PV_118P5"
  },
  {
   "global": true,
   "name": "PV_118P6"
  },
  {
   "global": true,
   "name": "PV_118P7"
  },
  {
   "global": true,
   "name": "PV_118P8"
  },
  {
   "global": true,
   "name": "PV_118P9"
  },
  {
   "global": true,
   "name": "PV_118P10"
  },
  {
   "global": true,
   "name": "PV_118P11"
  },
  {
   "global": true,
   "name": "PV_118P12"
  },
  {
   "global": true,
   "name": "PV_118P13"
  },
  {
   "global": true,
   "name": "PV_118P14"
  },
  {
   "global": true,
   "name": "PV_118P15"
  },
  {
   "global": true,
   "name": "PV_118P16"
  },
  {
   "global": true,
   "name": "PV_118P17"
  },
  {
   "global": true,
   "name": "PV_118P18"
  },
  {
   "global": true,
   "name": "PV_118P19"
  }
 ],
 "subscriptions": [],
 "period": 60,
 "key": ""
}