{
 "coreInit": "--federates=1",
 "coreName": "PV_153 Federate",
 "coreType": "zmq",
 "name": "PV_153",
 "publications": [
  {
   "global": true,
   "name": "PV_153P0"
  },
  {
   "global": true,
   "name": "PV_153P1"
  },
  {
   "global": true,
   "name": "PV_153P2"
  },
  {
   "global": true,
   "name": "PV_153P3"
  },
  {
   "global": true,
   "name": "PV_153P4"
  },
  {
   "global": true,
   "name": "PV_153P5"
  },
  {
   "global": true,
   "name": "PV_153P6"
  },
  {
   "global": true,
   "name": "PV_153P7"
  },
  {
   "global": true,
   "name": "PV_153P8"
  },
  {
   "global": true,
   "name": "PV_153P9"
  },
  {
   "global": true,
   "name": "PV_153P10"
  },
  {
   "global": true,
   "name": "PV_153P11"
  },
  {
   "global": true,
   "name": "PV_153P12"
  },
  {
   "global": true,
   "name": "PV_153P13"
  },
  {
   "global": true,
   "name": "PV_153P14"
  },
  {
   "global": true,
   "name": "PV_153P15"
  },
  {
   "global": true,
   "name": "PV_153P16"
  },
  {
   "global": true,
   "name": "PV_153P17"
  },
  {
   "global": true,
   "name": "PV_153P18"
  },
  {
   "global": true,
   "name": "PV_153P19"
  }
 ],
 "subscriptions": [],
 "period": 60,
 "key": ""
}