{
 "coreInit": "--federates=1",
 "coreName": "PV_121 Federate",
 "coreType": "zmq",
 "name": "PV_121",
 "publications": [
  {
   "global": true,
   "name": "PV_121P0"
  },
  {
   "global": true,
   "name": "PV_121P1"
  },
  {
   "global": true,
   "name": "PV_121P2"
  },
  {
   "global": true,
   "name": "PV_121P3"
  },
  {
   "global": true,
   "name": "PV_121P4"
  },
  {
   "global": true,
   "name": "PV_121P5"
  },
  {
   "global": true,
   "name": "PV_121P6"
  },
  {
   "global": true,
   "name": "PV_121P7"
  },
  {
   "global": true,
   "name": "PV_121P8"
  },
  {
   "global": true,
   "name": "PV_121P9"
  },
  {
   "global": true,
   "name": "PV_121P10"
  },
  {
   "global": true,
   "name": "PV_121P11"
  },
  {
   "global": true,
   "name": "PV_121P12"
  },
  {
   "global": true,
   "name": "PV_121P13"
  },
  {
   "global": true,
   "name": "PV_121P14"
  },
  {
   "global": true,
   "name": "PV_121P15"
  },
  {
   "global": true,
   "name": "PV_121P16"
  },
  {
   "global": true,
   "name": "PV_121P17"
  },
  {
   "global": true,
   "name": "PV_121P18"
  },
  {
   "global": true,
   "name": "PV_121P19"
  }
 ],
 "subscriptions": [],
 "period": 60,
 "key": ""
}