{
 "coreInit": "--federates=1",
 "coreName": "PV_112 Federate",
 "coreType": "zmq",
 "name": "PV_112",
 "publications": [
  {
   "global": true,
   "name": "PV_112P0"
  },
  {
   "global": true,
   "name": "PV_112P1"
  },
  {
   "global": true,
   "name": "PV_112P2"
  },
  {
   "global": true,
   "name": "PV_112P3"
  },
  {
   "global": true,
   "name": "PV_112P4"
  },
  {
   "global": true,
   "name": "PV_112P5"
  },
  {
   "global": true,
   "name": "PV_112P6"
  },
  {
   "global": true,
   "name": "PV_112P7"
  },
  {
   "global": true,
   "name": "PV_112P8"
  },
  {
   "global": true,
   "name": "PV_112P9"
  },
  {
   "global": true,
   "name": "PV_112P10"
  },
  {
   "global": true,
   "name": "PV_112P11"
  },
  {
   "global": true,
   "name": "PV_112P12"
  },
  {
   "global": true,
   "name": "PV_112P13"
  },
  {
   "global": true,
   "name": "PV_112P14"
  },
  {
   "global": true,
   "name": "PV_112P15"
  },
  {
   "global": true,
   "name": "PV_112P16"
  },
  {
   "global": true,
   "name": "PV_112P17"
  },
  {
   "global": true,
   "name": "PV_112P18"
  },
  {
   "global": true,
   "name": "PV_112P19"
  }
 ],
 "subscriptions": [],
 "period": 60,
 "key": ""
}