{
 "coreInit": "--federates=1",
 "coreName": "PV_199 Federate",
 "coreType": "zmq",
 "name": "PV_199",
 "publications": [
  {
   "global": true,
   "name": "PV_199P0"
  },
  {
   "global": true,
   "name": "PV_199P1"
  },
  {
   "global": true,
   "name": "PV_199P2"
  },
  {
   "global": true,
   "name": "PV_199P3"
  },
  {
   "global": true,
   "name": "PV_199P4"
  },
  {
   "global": true,
   "name": "PV_199P5"
  },
  {
   "global": true,
   "name": "PV_199P6"
  },
  {
   "global": true,
   "name": "PV_199P7"
  },
  {
   "global": true,
   "name": "PV_199P8"
  },
  {
   "global": true,
   "name": "PV_199P9"
  },
  {
   "global": true,
   "name": "PV_199P10"
  },
  {
   "global": true,
   "name": "PV_199P11"
  },
  {
   "global": true,
   "name": "PV_199P12"
  },
  {
   "global": true,
   "name": "PV_199P13"
  },
  {
   "global": true,
   "name": "PV_199P14"
  },
  {
   "global": true,
   "name": "PV_199P15"
  },
  {
   "global": true,
   "name": "PV_199P16"
  },
  {
   "global": true,
   "name": "PV_199P17"
  },
  {
   "global": true,
   "name": "PV_199P18"
  },
  {
   "global": true,
   "name": "PV_199P19"
  }
 ],
 "subscriptions": [],
 "period": 60,
 "key": ""
}