{
 "coreInit": "--federates=1",
 "coreName": "PV_145 Federate",
 "coreType": "zmq",
 "name": "PV_145",
 "publications": [
  {
   "global": true,
   "name": "PV_145P0"
  },
  {
   "global": true,
   "name": "PV_145P1"
  },
  {
   "global": true,
   "name": "PV_145P2"
  },
  {
   "global": true,
   "name": "PV_145P3"
  },
  {
   "global": true,
   "name": "PV_145P4"
  },
  {
   "global": true,
   "name": "PV_145P5"
  },
  {
   "global": true,
   "name": "PV_145P6"
  },
  {
   "global": true,
   "name": "PV_145P7"
  },
  {
   "global": true,
   "name": "PV_145P8"
  },
  {
   "global": true,
   "name": "PV_145P9"
  },
  {
   "global": true,
   "name": "PV_145P10"
  },
  {
   "global": true,
   "name": "PV_145P11"
  },
  {
   "global": true,
   "name": "PV_145P12"
  },
  {
   "global": true,
   "name": "PV_145P13"
  },
  {
   "global": true,
   "name": "PV_145P14"
  },
  {
   "global": true,
   "name": "PV_145P15"
  },
  {
   "global": true,
   "name": "PV_145P16"
  },
  {
   "global": true,
   "name": "PV_145P17"
  },
  {
   "global": true,
   "name": "PV_145P18"
  },
  {
   "global": true,
   "name": "PV_145P19"
  }
 ],
 "subscriptions": [],
 "period": 60,
 "key": ""
}