{
 "coreInit": "--federates=1",
 "coreName": "PV_186 Federate",
 "coreType": "zmq",
 "name": "PV_186",
 "publications": [
  {
   "global": true,
   "name": "PV_186P0"
  },
  {
   "global": true,
   "name": "PV_186P1"
  },
  {
   "global": true,
   "name": "PV_186P2"
  },
  {
   "global": true,
   "name": "PV_186P3"
  },
  {
   "global": true,
   "name": "PV_186P4"
  },
  {
   "global": true,
   "name": "PV_186P5"
  },
  {
   "global": true,
   "name": "PV_186P6"
  },
  {
   "global": true,
   "name": "PV_186P7"
  },
  {
   "global": true,
   "name": "PV_186P8"
  },
  {
   "global": true,
   "name": "PV_186P9"
  },
  {
   "global": true,
   "name": "PV_186P10"
  },
  {
   "global": true,
   "name": "PV_186P11"
  },
  {
   "global": true,
   "name": "PV_186P12"
  },
  {
   "global": true,
   "name": "PV_186P13"
  },
  {
   "global": true,
   "name": "PV_186P14"
  },
  {
   "global": true,
   "name": "PV_186P15"
  },
  {
   "global": true,
   "name": "PV_186P16"
  },
  {
   "global": true,
   "name": "PV_186P17"
  },
  {
   "global": true,
   "name": "PV_186P18"
  },
  {
   "global": true,
   "name": "PV_186P19"
  }
 ],
 "subscriptions": [],
 "period": 60,
 "key": ""
}