{
 "coreInit": "--federates=1",
 "coreName": "PV_183 Federate",
 "coreType": "zmq",
 "name": "PV_183",
 "publications": [
  {
   "global": true,
   "name": "PV_183P0"
  },
  {
   "global": true,
   "name": "PV_183P1"
  },
  {
   "global": true,
   "name": "PV_183P2"
  },
  {
   "global": true,
   "name": "PV_183P3"
  },
  {
   "global": true,
   "name": "PV_183P4"
  },
  {
   "global": true,
   "name": "PV_183P5"
  },
  {
   "global": true,
   "name": "PV_183P6"
  },
  {
   "global": true,
   "name": "PV_183P7"
  },
  {
   "global": true,
   "name": "PV_183P8"
  },
  {
   "global": true,
   "name": "PV_183P9"
  },
  {
   "global": true,
   "name": "PV_183P10"
  },
  {
   "global": true,
   "name": "PV_183P11"
  },
  {
   "global": true,
   "name": "PV_183P12"
  },
  {
   "global": true,
   "name": "PV_183P13"
  },
  {
   "global": true,
   "name": "PV_183P14"
  },
  {
   "global": true,
   "name": "PV_183P15"
  },
  {
   "global": true,
   "name": "PV_183P16"
  },
  {
   "global": true,
   "name": "PV_183P17"
  },
  {
   "global": true,
   "name": "PV_183P18"
  },
  {
   "global": true,
   "name": "PV_183P19"
  }
 ],
 "subscriptions": [],
 "period": 60,
 "key": ""
}