{
 "coreInit": "--federates=1",
 "coreName": "PV_168 Federate",
 "coreType": "zmq",
 "name": "PV_168",
 "publications": [
  {
   "global": true,
   "name": "PV_168P0"
  },
  {
   "global": true,
   "name": "PV_168P1"
  },
  {
   "global": true,
   "name": "PV_168P2"
  },
  {
   "global": true,
   "name": "PV_168P3"
  },
  {
   "global": true,
   "name": "PV_168P4"
  },
  {
   "global": true,
   "name": "PV_168P5"
  },
  {
   "global": true,
   "name": "PV_168P6"
  },
  {
   "global": true,
   "name": "PV_168P7"
  },
  {
   "global": true,
   "name": "PV_168P8"
  },
  {
   "global": true,
   "name": "PV_168P9"
  },
  {
   "global": true,
   "name": "PV_168P10"
  },
  {
   "global": true,
   "name": "PV_168P11"
  },
  {
   "global": true,
   "name": "PV_168P12"
  },
  {
   "global": true,
   "name": "PV_168P13"
  },
  {
   "global": true,
   "name": "PV_168P14"
  },
  {
   "global": true,
   "name": "PV_168P15"
  },
  {
   "global": true,
   "name": "PV_168P16"
  },
  {
   "global": true,
   "name": "PV_168P17"
  },
  {
   "global": true,
   "name": "PV_168P18"
  },
  {
   "global": true,
   "name": "PV_168P19"
  }
 ],
 "subscriptions": [],
 "period": 60,
 "key": ""
}