{
 "coreInit": "--federates=1",
 "coreName": "PV_188 Federate",
 "coreType": "zmq",
 "name": "PV_188",
 "publications": [
  {
   "global": true,
   "name": "PV_188P0"
  },
  {
   "global": true,
   "name": "PV_188P1"
  },
  {
   "global": true,
   "name": "PV_188P2"
  },
  {
   "global": true,
   "name": "PV_188P3"
  },
  {
   "global": true,
   "name": "PV_188P4"
  },
  {
   "global": true,
   "name": "PV_188P5"
  },
  {
   "global": true,
   "name": "PV_188P6"
  },
  {
   "global": true,
   "name": "PV_188P7"
  },
  {
   "global": true,
   "name": "PV_188P8"
  },
  {
   "global": true,
   "name": "PV_188P9"
  },
  {
   "global": true,
   "name": "PV_188P10"
  },
  {
   "global": true,
   "name": "PV_188P11"
  },
  {
   "global": true,
   "name": "PV_188P12"
  },
  {
   "global": true,
   "name": "PV_188P13"
  },
  {
   "global": true,
   "name": "PV_188P14"
  },
  {
   "global": true,
   "name": "PV_188P15"
  },
  {
   "global": true,
   "name": "PV_188P16"
  },
  {
   "global": true,
   "name": "PV_188P17"
  },
  {
   "global": true,
   "name": "PV_188P18"
  },
  {
   "global": true,
   "name": "PV_188P19"
  }
 ],
 "subscriptions": [],
 "period": 60,
 "key": ""
}