{
 "coreInit": "--federates=1",
 "coreName": "PV_109 Federate",
 "coreType": "zmq",
 "name": "PV_109",
 "publications": [
  {
   "global": true,
   "name": "PV_109P0"
  },
  {
   "global": true,
   "name": "PV_109P1"
  },
  {
   "global": true,
   "name": "PV_109P2"
  },
  {
   "global": true,
   "name": "PV_109P3"
  },
  {
   "global": true,
   "name": "PV_109P4"
  },
  {
   "global": true,
   "name": "PV_109P5"
  },
  {
   "global": true,
   "name": "PV_109P6"
  },
  {
   "global": true,
   "name": "PV_109P7"
  },
  {
   "global": true,
   "name": "PV_109P8"
  },
  {
   "global": true,
   "name": "PV_109P9"
  },
  {
   "global": true,
   "name": "PV_109P10"
  },
  {
   "global": true,
   "name": "PV_109P11"
  },
  {
   "global": true,
   "name": "PV_109P12"
  },
  {
   "global": true,
   "name": "PV_109P13"
  },
  {
   "global": true,
   "name": "PV_109P14"
  },
  {
   "global": true,
   "name": "PV_109P15"
  },
  {
   "global": true,
   "name": "PV_109P16"
  },
  {
   "global": true,
   "name": "PV_109P17"
  },
  {
   "global": true,
   "name": "PV_109P18"
  },
  {
   "global": true,
   "name": "PV_109P19"
  }
 ],
 "subscriptions": [],
 "period": 60,
 "key": ""
}