{
 "coreInit": "--federates=1",
 "coreName": "PV_113 Federate",
 "coreType": "zmq",
 "name": "PV_113",
 "publications": [
  {
   "global": true,
   "name": "PV_113P0"
  },
  {
   "global": true,
   "name": "PV_113P1"
  },
  {
   "global": true,
   "name": "PV_113P2"
  },
  {
   "global": true,
   "name": "PV_113P3"
  },
  {
   "global": true,
   "name": "PV_113P4"
  },
  {
   "global": true,
   "name": "PV_113P5"
  },
  {
   "global": true,
   "name": "PV_113P6"
  },
  {
   "global": true,
   "name": "PV_113P7"
  },
  {
   "global": true,
   "name": "PV_113P8"
  },
  {
   "global": true,
   "name": "PV_113P9"
  },
  {
   "global": true,
   "name": "PV_113P10"
  },
  {
   "global": true,
   "name": "PV_113P11"
  },
  {
   "global": true,
   "name": "PV_113P12"
  },
  {
   "global": true,
   "name": "PV_113P13"
  },
  {
   "global": true,
   "name": "PV_113P14"
  },
  {
   "global": true,
   "name": "PV_113P15"
  },
  {
   "global": true,
   "name": "PV_113P16"
  },
  {
   "global": true,
   "name": "PV_113P17"
  },
  {
   "global": true,
   "name": "PV_113P18"
  },
  {
   "global": true,
   "name": "PV_113P19"
  }
 ],
 "subscriptions": [],
 "period": 60,
 "key": ""
}