{
 "coreInit": "--federates=1",
 "coreName": "PV_122 Federate",
 "coreType": "zmq",
 "name": "PV_122",
 "publications": [
  {
   "global": true,
   "name": "PV_122P0"
  },
  {
   "global": true,
   "name": "PV_122P1"
  },
  {
   "global": true,
   "name": "PV_122P2"
  },
  {
   "global": true,
   "name": "PV_122P3"
  },
  {
   "global": true,
   "name": "PV_122P4"
  },
  {
   "global": true,
   "name": "PV_122P5"
  },
  {
   "global": true,
   "name": "PV_122P6"
  },
  {
   "global": true,
   "name": "PV_122P7"
  },
  {
   "global": true,
   "name": "PV_122P8"
  },
  {
   "global": true,
   "name": "PV_122P9"
  },
  {
   "global": true,
   "name": "PV_122P10"
  },
  {
   "global": true,
   "name": "PV_122P11"
  },
  {
   "global": true,
   "name": "PV_122P12"
  },
  {
   "global": true,
   "name": "PV_122P13"
  },
  {
   "global": true,
   "name": "PV_122P14"
  },
  {
   "global": true,
   "name": "PV_122P15"
  },
  {
   "global": true,
   "name": "PV_122P16"
  },
  {
   "global": true,
   "name": "PV_122P17"
  },
  {
   "global": true,
   "name": "PV_122P18"
  },
  {
   "global": true,
   "name": "PV_122P19"
  }
 ],
 "subscriptions": [],
 "period": 60,
 "key": ""
}