{
 "coreInit": "--federates=1",
 "coreName": "PV_170 Federate",
 "coreType": "zmq",
 "name": "PV_170",
 "publications": [
  {
   "global": true,
   "name": "PV_170P0"
  },
  {
   "global": true,
   "name": "PV_170P1"
  },
  {
   "global": true,
   "name": "PV_170P2"
  },
  {
   "global": true,
   "name": "PV_170P3"
  },
  {
   "global": true,
   "name": "PV_170P4"
  },
  {
   "global": true,
   "name": "PV_170P5"
  },
  {
   "global": true,
   "name": "PV_170P6"
  },
  {
   "global": true,
   "name": "PV_170P7"
  },
  {
   "global": true,
   "name": "PV_170P8"
  },
  {
   "global": true,
   "name": "PV_170P9"
  },
  {
   "global": true,
   "name": "PV_170P10"
  },
  {
   "global": true,
   "name": "PV_170P11"
  },
  {
   "global": true,
   "name": "PV_170P12"
  },
  {
   "global": true,
   "name": "PV_170P13"
  },
  {
   "global": true,
   "name": "PV_170P14"
  },
  {
   "global": true,
   "name": "PV_170P15"
  },
  {
   "global": true,
   "name": "PV_170P16"
  },
  {
   "global": true,
   "name": "PV_170P17"
  },
  {
   "global": true,
   "name": "PV_170P18"
  },
  {
   "global": true,
   "name": "PV_170P19"
  }
 ],
 "subscriptions": [],
 "period": 60,
 "key": ""
}