{
 "coreInit": "--federates=1",
 "coreName": "PV_172 Federate",
 "coreType": "zmq",
 "name": "PV_172",
 "publications": [
  {
   "global": true,
   "name": "PV_172P0"
  },
  {
   "global": true,
   "name": "PV_172P1"
  },
  {
   "global": true,
   "name": "PV_172P2"
  },
  {
   "global": true,
   "name": "PV_172P3"
  },
  {
   "global": true,
   "name": "PV_172P4"
  },
  {
   "global": true,
   "name": "PV_172P5"
  },
  {
   "global": true,
   "name": "PV_172P6"
  },
  {
   "global": true,
   "name": "PV_172P7"
  },
  {
   "global": true,
   "name": "PV_172P8"
  },
  {
   "global": true,
   "name": "PV_172P9"
  },
  {
   "global": true,
   "name": "PV_172P10"
  },
  {
   "global": true,
   "name": "PV_172P11"
  },
  {
   "global": true,
   "name": "PV_172P12"
  },
  {
   "global": true,
   "name": "PV_172P13"
  },
  {
   "global": true,
   "name": "PV_172P14"
  },
  {
   "global": true,
   "name": "PV_172P15"
  },
  {
   "global": true,
   "name": "PV_172P16"
  },
  {
   "global": true,
   "name": "PV_172P17"
  },
  {
   "global": true,
   "name": "PV_172P18"
  },
  {
   "global": true,
   "name": "PV_172P19"
  }
 ],
 "subscriptions": [],
 "period": 60,
 "key": ""
}