{
 "coreInit": "--federates=1",
 "coreName": "PV_10 Federate",
 "coreType": "zmq",
 "name": "PV_10",
 "publications": [
  {
   "global": true,
   "name": "PV_10P0"
  },
  {
   "global": true,
   "name": "PV_10P1"
  },
  {
   "global": true,
   "name": "PV_10P2"
  },
  {
   "global": true,
   "name": "PV_10P3"
  },
  {
   "global": true,
   "name": "PV_10P4"
  },
  {
   "global": true,
   "name": "PV_10P5"
  },
  {
   "global": true,
   "name": "PV_10P6"
  },
  {
   "global": true,
   "name": "PV_10P7"
  },
  {
   "global": true,
   "name": "PV_10P8"
  },
  {
   "global": true,
   "name": "PV_10P9"
  },
  {
   "global": true,
   "name": "PV_10P10"
  },
  {
   "global": true,
   "name": "PV_10P11"
  },
  {
   "global": true,
   "name": "PV_10P12"
  },
  {
   "global": true,
   "name": "PV_10P13"
  },
  {
   "global": true,
   "name": "PV_10P14"
  },
  {
   "global": true,
   "name": "PV_10P15"
  },
  {
   "global": true,
   "name": "PV_10P16"
  },
  {
   "global": true,
   "name": "PV_10P17"
  },
  {
   "global": true,
   "name": "PV_10P18"
  },
  {
   "global": true,
   "name": "PV_10P19"
  }
 ],
 "subscriptions": [],
 "period": 60,
 "key": ""
}