{
 "coreInit": "--federates=1",
 "coreName": "PV_175 Federate",
 "coreType": "zmq",
 "name": "PV_175",
 "publications": [
  {
   "global": true,
   "name": "PV_175P0"
  },
  {
   "global": true,
   "name": "PV_175P1"
  },
  {
   "global": true,
   "name": "PV_175P2"
  },
  {
   "global": true,
   "name": "PV_175P3"
  },
  {
   "global": true,
   "name": "PV_175P4"
  },
  {
   "global": true,
   "name": "PV_175P5"
  },
  {
   "global": true,
   "name": "PV_175P6"
  },
  {
   "global": true,
   "name": "PV_175P7"
  },
  {
   "global": true,
   "name": "PV_175P8"
  },
  {
   "global": true,
   "name": "PV_175P9"
  },
  {
   "global": true,
   "name": "PV_175P10"
  },
  {
   "global": true,
   "name": "PV_175P11"
  },
  {
   "global": true,
   "name": "PV_175P12"
  },
  {
   "global": true,
   "name": "PV_175P13"
  },
  {
   "global": true,
   "name": "PV_175P14"
  },
  {
   "global": true,
   "name": "PV_175P15"
  },
  {
   "global": true,
   "name": "PV_175P16"
  },
  {
   "global": true,
   "name": "PV_175P17"
  },
  {
   "global": true,
   "name": "PV_175P18"
  },
  {
   "global": true,
   "name": "PV_175P19"
  }
 ],
 "subscriptions": [],
 "period": 60,
 "key": ""
}