{
 "coreInit": "--federates=1",
 "coreName": "PV_148 Federate",
 "coreType": "zmq",
 "name": "PV_148",
 "publications": [
  {
   "global": true,
   "name": "PV_148P0"
  },
  {
   "global": true,
   "name": "PV_148P1"
  },
  {
   "global": true,
   "name": "PV_148P2"
  },
  {
   "global": true,
   "name": "PV_148P3"
  },
  {
   "global": true,
   "name": "PV_148P4"
  },
  {
   "global": true,
   "name": "PV_148P5"
  },
  {
   "global": true,
   "name": "PV_148P6"
  },
  {
   "global": true,
   "name": "PV_148P7"
  },
  {
   "global": true,
   "name": "PV_148P8"
  },
  {
   "global": true,
   "name": "PV_148P9"
  },
  {
   "global": true,
   "name": "PV_148P10"
  },
  {
   "global": true,
   "name": "PV_148P11"
  },
  {
   "global": true,
   "name": "PV_148P12"
  },
  {
   "global": true,
   "name": "PV_148P13"
  },
  {
   "global": true,
   "name": "PV_148P14"
  },
  {
   "global": true,
   "name": "PV_148P15"
  },
  {
   "global": true,
   "name": "PV_148P16"
  },
  {
   "global": true,
   "name": "PV_148P17"
  },
  {
   "global": true,
   "name": "PV_148P18"
  },
  {
   "global": true,
   "name": "PV_148P19"
  }
 ],
 "subscriptions": [],
 "period": 60,
 "key": ""
}