{
 "coreInit": "--federates=1",
 "coreName": "PV_192 Federate",
 "coreType": "zmq",
 "name": "PV_192",
 "publications": [
  {
   "global": true,
   "name": "PV_192P0"
  },
  {
   "global": true,
   "name": "PV_192P1"
  },
  {
   "global": true,
   "name": "PV_192P2"
  },
  {
   "global": true,
   "name": "PV_192P3"
  },
  {
   "global": true,
   "name": "PV_192P4"
  },
  {
   "global": true,
   "name": "PV_192P5"
  },
  {
   "global": true,
   "name": "PV_192P6"
  },
  {
   "global": true,
   "name": "PV_192P7"
  },
  {
   "global": true,
   "name": "PV_192P8"
  },
  {
   "global": true,
   "name": "PV_192P9"
  },
  {
   "global": true,
   "name": "PV_192P10"
  },
  {
   "global": true,
   "name": "PV_192P11"
  },
  {
   "global": true,
   "name": "PV_192P12"
  },
  {
   "global": true,
   "name": "PV_192P13"
  },
  {
   "global": true,
   "name": "PV_192P14"
  },
  {
   "global": true,
   "name": "PV_192P15"
  },
  {
   "global": true,
   "name": "PV_192P16"
  },
  {
   "global": true,
   "name": "PV_192P17"
  },
  {
   "global": true,
   "name": "PV_192P18"
  },
  {
   "global": true,
   "name": "PV_192P19"
  }
 ],
 "subscriptions": [],
 "period": 60,
 "key": ""
}