{
 "coreInit": "--federates=1",
 "coreName": "PV_282 Federate",
 "coreType": "zmq",
 "name": "PV_282",
 "publications": [
  {
   "global": true,
   "name": "PV_282P0"
  },
  {
   "global": true,
   "name": "PV_282P1"
  },
  {
   "global": true,
   "name": "PV_282P2"
  },
  {
   "global": true,
   "name": "PV_282P3"
  },
  {
   "global": true,
   "name": "PV_282P4"
  },
  {
   "global": true,
   "name": "PV_282P5"
  },
  {
   "global": true,
   "name": "PV_282P6"
  },
  {
   "global": true,
   "name": "PV_282P7"
  },
  {
   "global": true,
   "name": "PV_282P8"
  },
  {
   "global": true,
   "name": "PV_282P9"
  },
  {
   "global": true,
   "name": "PV_282P10"
  },
  {
   "global": true,
   "name": "PV_282P11"
  },
  {
   "global": true,
   "name": "PV_282P12"
  },
  {
   "global": true,
   "name": "PV_282P13"
  },
  {
   "global": true,
   "name": "PV_282P14"
  },
  {
   "global": true,
   "name": "PV_282P15"
  },
  {
   "global": true,
   "name": "PV_282P16"
  },
  {
   "global": true,
   "name": "PV_282P17"
  },
  {
   "global": true,
   "name": "PV_282P18"
  },
  {
   "global": true,
   "name": "PV_282P19"
  }
 ],
 "subscriptions": [],
 "period": 60,
 "key": ""
}