{
 "coreInit": "--federates=1",
 "coreName": "PV_233 Federate",
 "coreType": "zmq",
 "name": "PV_233",
 "publications": [
  {
   "global": true,
   "name": "PV_233P0"
  },
  {
   "global": true,
   "name": "PV_233P1"
  },
  {
   "global": true,
   "name": "PV_233P2"
  },
  {
   "global": true,
   "name": "PV_233P3"
  },
  {
   "global": true,
   "name": "PV_233P4"
  },
  {
   "global": true,
   "name": "PV_233P5"
  },
  {
   "global": true,
   "name": "PV_233P6"
  },
  {
   "global": true,
   "name": "PV_233P7"
  },
  {
   "global": true,
   "name": "PV_233P8"
  },
  {
   "global": true,
   "name": "PV_233P9"
  },
  {
   "global": true,
   "name": "PV_233P10"
  },
  {
   "global": true,
   "name": "PV_233P11"
  },
  {
   "global": true,
   "name": "PV_233P12"
  },
  {
   "global": true,
   "name": "PV_233P13"
  },
  {
   "global": true,
   "name": "PV_233P14"
  },
  {
   "global": true,
   "name": "PV_233P15"
  },
  {
   "global": true,
   "name": "PV_233P16"
  },
  {
   "global": true,
   "name": "PV_233P17"
  },
  {
   "global": true,
   "name": "PV_233P18"
  },
  {
   "global": true,
   "name": "PV_233P19"
  }
 ],
 "subscriptions": [],
 "period": 60,
 "key": ""
}