{
 "coreInit": "--federates=1",
 "coreName": "PV_259 Federate",
 "coreType": "zmq",
 "name": "PV_259",
 "publications": [
  {
   "global": true,
   "name": "PV_259P0"
  },
  {
   "global": true,
   "name": "PV_259P1"
  },
  {
   "global": true,
   "name": "PV_259P2"
  },
  {
   "global": true,
   "name": "PV_259P3"
  },
  {
   "global": true,
   "name": "PV_259P4"
  },
  {
   "global": true,
   "name": "PV_259P5"
  },
  {
   "global": true,
   "name": "PV_259P6"
  },
  {
   "global": true,
   "name": "PV_259P7"
  },
  {
   "global": true,
   "name": "PV_259P8"
  },
  {
   "global": true,
   "name": "PV_259P9"
  },
  {
   "global": true,
   "name": "PV_259P10"
  },
  {
   "global": true,
   "name": "PV_259P11"
  },
  {
   "global": true,
   "name": "PV_259P12"
  },
  {
   "global": true,
   "name": "PV_259P13"
  },
  {
   "global": true,
   "name": "PV_259P14"
  },
  {
   "global": true,
   "name": "PV_259P15"
  },
  {
   "global": true,
   "name": "PV_259P16"
  },
  {
   "global": true,
   "name": "PV_259P17"
  },
  {
   "global": true,
   "name": "PV_259P18"
  },
  {
   "global": true,
   "name": "PV_259P19"
  }
 ],
 "subscriptions": [],
 "period": 60,
 "key": ""
}