{
 "coreInit": "--federates=1",
 "coreName": "PV_266 Federate",
 "coreType": "zmq",
 "name": "PV_266",
 "publications": [
  {
   "global": true,
   "name": "PV_266P0"
  },
  {
   "global": true,
   "name": "PV_266P1"
  },
  {
   "global": true,
   "name": "PV_266P2"
  },
  {
   "global": true,
   "name": "PV_266P3"
  },
  {
   "global": true,
   "name": "PV_266P4"
  },
  {
   "global": true,
   "name": "PV_266P5"
  },
  {
   "global": true,
   "name": "PV_266P6"
  },
  {
   "global": true,
   "name": "PV_266P7"
  },
  {
   "global": true,
   "name": "PV_266P8"
  },
  {
   "global": true,
   "name": "PV_266P9"
  },
  {
   "global": true,
   "name": "PV_266P10"
  },
  {
   "global": true,
   "name": "PV_266P11"
  },
  {
   "global": true,
   "name": "PV_266P12"
  },
  {
   "global": true,
   "name": "PV_266P13"
  },
  {
   "global": true,
   "name": "PV_266P14"
  },
  {
   "global": true,
   "name": "PV_266P15"
  },
  {
   "global": true,
   "name": "PV_266P16"
  },
  {
   "global": true,
   "name": "PV_266P17"
  },
  {
   "global": true,
   "name": "PV_266P18"
  },
  {
   "global": true,
   "name": "PV_266P19"
  }
 ],
 "subscriptions": [],
 "period": 60,
 "key": ""
}