{
 "coreInit": "--federates=1",
 "coreName": "PV_257 Federate",
 "coreType": "zmq",
 "name": "PV_257",
 "publications": [
  {
   "global": true,
   "name": "PV_257P0"
  },
  {
   "global": true,
   "name": "PV_257P1"
  },
  {
   "global": true,
   "name": "PV_257P2"
  },
  {
   "global": true,
   "name": "PV_257P3"
  },
  {
   "global": true,
   "name": "PV_257P4"
  },
  {
   "global": true,
   "name": "PV_257P5"
  },
  {
   "global": true,
   "name": "PV_257P6"
  },
  {
   "global": true,
   "name": "PV_257P7"
  },
  {
   "global": true,
   "name": "PV_257P8"
  },
  {
   "global": true,
   "name": "PV_257P9"
  },
  {
   "global": true,
   "name": "PV_257P10"
  },
  {
   "global": true,
   "name": "PV_257P11"
  },
  {
   "global": true,
   "name": "PV_257P12"
  },
  {
   "global": true,
   "name": "PV_257P13"
  },
  {
   "global": true,
   "name": "PV_257P14"
  },
  {
   "global": true,
   "name": "PV_257P15"
  },
  {
   "global": true,
   "name": "PV_257P16"
  },
  {
   "global": true,
   "name": "PV_257P17"
  },
  {
   "global": true,
   "name": "PV_257P18"
  },
  {
   "global": true,
   "name": "PV_257P19"
  }
 ],
 "subscriptions": [],
 "period": 60,
 "key": ""
}