{
 "coreInit": "--federates=1",
 "coreName": "PV_260 Federate",
 "coreType": "zmq",
 "name": "PV_260",
 "publications": [
  {
   "global": true,
   "name": "PV_260P0"
  },
  {
   "global": true,
   "name": "PV_260P1"
  },
  {
   "global": true,
   "name": "PV_260P2"
  },
  {
   "global": true,
   "name": "PV_260P3"
  },
  {
   "global": true,
   "name": "PV_260P4"
  },
  {
   "global": true,
   "name": "PV_260P5"
  },
  {
   "global": true,
   "name": "PV_260P6"
  },
  {
   "global": true,
   "name": "PV_260P7"
  },
  {
   "global": true,
   "name": "PV_260P8"
  },
  {
   "global": true,
   "name": "PV_260P9"
  },
  {
   "global": true,
   "name": "PV_260P10"
  },
  {
   "global": true,
   "name": "PV_260P11"
  },
  {
   "global": true,
   "name": "PV_260P12"
  },
  {
   "global": true,
   "name": "PV_260P13"
  },
  {
   "global": true,
   "name": "PV_260P14"
  },
  {
   "global": true,
   "name": "PV_260P15"
  },
  {
   "global": true,
   "name": "PV_260P16"
  },
  {
   "global": true,
   "name": "PV_260P17"
  },
  {
   "global": true,
   "name": "PV_260P18"
  },
  {
   "global": true,
   "name": "PV_260P19"
  }
 ],
 "subscriptions": [],
 "period": 60,
 "key": ""
}