{
 "coreInit": "--federates=1",
 "coreName": "PV_239 Federate",
 "coreType": "zmq",
 "name": "PV_239",
 "publications": [
  {
   "global": true,
   "name": "PV_239P0"
  },
  {
   "global": true,
   "name": "PV_239P1"
  },
  {
   "global": true,
   "name": "PV_239P2"
  },
  {
   "global": true,
   "name": "PV_239P3"
  },
  {
   "global": true,
   "name": "PV_239P4"
  },
  {
   "global": true,
   "name": "PV_239P5"
  },
  {
   "global": true,
   "name": "PV_239P6"
  },
  {
   "global": true,
   "name": "PV_239P7"
  },
  {
   "global": true,
   "name": "PV_239P8"
  },
  {
   "global": true,
   "name": "PV_239P9"
  },
  {
   "global": true,
   "name": "PV_239P10"
  },
  {
   "global": true,
   "name": "PV_239P11"
  },
  {
   "global": true,
   "name": "PV_239P12"
  },
  {
   "global": true,
   "name": "PV_239P13"
  },
  {
   "global": true,
   "name": "PV_239P14"
  },
  {
   "global": true,
   "name": "PV_239P15"
  },
  {
   "global": true,
   "name": "PV_239P16"
  },
  {
   "global": true,
   "name": "PV_239P17"
  },
  {
   "global": true,
   "name": "PV_239P18"
  },
  {
   "global": true,
   "name": "PV_239P19"
  }
 ],
 "subscriptions": [],
 "period": 60,
 "key": ""
}