{
 "coreInit": "--federates=1",
 "coreName": "PV_247 Federate",
 "coreType": "zmq",
 "name": "PV_247",
 "publications": [
  {
   "global": true,
   "name": "PV_247P0"
  },
  {
   "global": true,
   "name": "PV_247P1"
  },
  {
   "global": true,
   "name": "PV_247P2"
  },
  {
   "global": true,
   "name": "PV_247P3"
  },
  {
   "global": true,
   "name": "PV_247P4"
  },
  {
   "global": true,
   "name": "PV_247P5"
  },
  {
   "global": true,
   "name": "PV_247P6"
  },
  {
   "global": true,
   "name": "PV_247P7"
  },
  {
   "global": true,
   "name": "PV_247P8"
  },
  {
   "global": true,
   "name": "PV_247P9"
  },
  {
   "global": true,
   "name": "PV_247P10"
  },
  {
   "global": true,
   "name": "PV_247P11"
  },
  {
   "global": true,
   "name": "PV_247P12"
  },
  {
   "global": true,
   "name": "PV_247P13"
  },
  {
   "global": true,
   "name": "PV_247P14"
  },
  {
   "global": true,
   "name": "PV_247P15"
  },
  {
   "global": true,
   "name": "PV_247P16"
  },
  {
   "global": true,
   "name": "PV_247P17"
  },
  {
   "global": true,
   "name": "PV_247P18"
  },
  {
   "global": true,
   "name": "PV_247P19"
  }
 ],
 "subscriptions": [],
 "period": 60,
 "key": ""
}