{
 "coreInit": "--federates=1",
 "coreName": "PV_208 Federate",
 "coreType": "zmq",
 "name": "PV_208",
 "publications": [
  {
   "global": true,
   "name": "PV_208P0"
  },
  {
   "global": true,
   "name": "PV_208P1"
  },
  {
   "global": true,
   "name": "PV_208P2"
  },
  {
   "global": true,
   "name": "PV_208P3"
  },
  {
   "global": true,
   "name": "PV_208P4"
  },
  {
   "global": true,
   "name": "PV_208P5"
  },
  {
   "global": true,
   "name": "PV_208P6"
  },
  {
   "global": true,
   "name": "PV_208P7"
  },
  {
   "global": true,
   "name": "PV_208P8"
  },
  {
   "global": true,
   "name": "PV_208P9"
  },
  {
   "global": true,
   "name": "PV_208P10"
  },
  {
   "global": true,
   "name": "PV_208P11"
  },
  {
   "global": true,
   "name": "PV_208P12"
  },
  {
   "global": true,
   "name": "PV_208P13"
  },
  {
   "global": true,
   "name": "PV_208P14"
  },
  {
   "global": true,
   "name": "PV_208P15"
  },
  {
   "global": true,
   "name": "PV_208P16"
  },
  {
   "global": true,
   "name": "PV_208P17"
  },
  {
   "global": true,
   "name": "PV_208P18"
  },
  {
   "global": true,
   "name": "PV_208P19"
  }
 ],
 "subscriptions": [],
 "period": 60,
 "key": ""
}