{
 "coreInit": "--federates=1",
 "coreName": "PV_285 Federate",
 "coreType": "zmq",
 "name": "PV_285",
 "publications": [
  {
   "global": true,
   "name": "PV_285P0"
  },
  {
   "global": true,
   "name": "PV_285P1"
  },
  {
   "global": true,
   "name": "PV_285P2"
  },
  {
   "global": true,
   "name": "PV_285P3"
  },
  {
   "global": true,
   "name": "PV_285P4"
  },
  {
   "global": true,
   "name": "PV_285P5"
  },
  {
   "global": true,
   "name": "PV_285P6"
  },
  {
   "global": true,
   "name": "PV_285P7"
  },
  {
   "global": true,
   "name": "PV_285P8"
  },
  {
   "global": true,
   "name": "PV_285P9"
  },
  {
   "global": true,
   "name": "PV_285P10"
  },
  {
   "global": true,
   "name": "PV_285P11"
  },
  {
   "global": true,
   "name": "PV_285P12"
  },
  {
   "global": true,
   "name": "PV_285P13"
  },
  {
   "global": true,
   "name": "PV_285P14"
  },
  {
   "global": true,
   "name": "PV_285P15"
  },
  {
   "global": true,
   "name": "PV_285P16"
  },
  {
   "global": true,
   "name": "PV_285P17"
  },
  {
   "global": true,
   "name": "PV_285P18"
  },
  {
   "global": true,
   "name": "PV_285P19"
  }
 ],
 "subscriptions": [],
 "period": 60,
 "key": ""
}