{
 "coreInit": "--federates=1",
 "coreName": "PV_245 Federate",
 "coreType": "zmq",
 "name": "PV_245",
 "publications": [
  {
   "global": true,
   "name": "PV_245P0"
  },
  {
   "global": true,
   "name": "PV_245P1"
  },
  {
   "global": true,
   "name": "PV_245P2"
  },
  {
   "global": true,
   "name": "PV_245P3"
  },
  {
   "global": true,
   "name": "PV_245P4"
  },
  {
   "global": true,
   "name": "PV_245P5"
  },
  {
   "global": true,
   "name": "PV_245P6"
  },
  {
   "global": true,
   "name": "PV_245P7"
  },
  {
   "global": true,
   "name": "PV_245P8"
  },
  {
   "global": true,
   "name": "PV_245P9"
  },
  {
   "global": true,
   "name": "PV_245P10"
  },
  {
   "global": true,
   "name": "PV_245P11"
  },
  {
   "global": true,
   "name": "PV_245P12"
  },
  {
   "global": true,
   "name": "PV_245P13"
  },
  {
   "global": true,
   "name": "PV_245P14"
  },
  {
   "global": true,
   "name": "PV_245P15"
  },
  {
   "global": true,
   "name": "PV_245P16"
  },
  {
   "global": true,
   "name": "PV_245P17"
  },
  {
   "global": true,
   "name": "PV_245P18"
  },
  {
   "global": true,
   "name": "PV_245P19"
  }
 ],
 "subscriptions": [],
 "period": 60,
 "key": ""
}