{
 "coreInit": "--federates=1",
 "coreName": "PV_220 Federate",
 "coreType": "zmq",
 "name": "PV_220",
 "publications": [
  {
   "global": true,
   "name": "PV_220P0"
  },
  {
   "global": true,
   "name": "PV_220P1"
  },
  {
   "global": true,
   "name": "PV_220P2"
  },
  {
   "global": true,
   "name": "PV_220P3"
  },
  {
   "global": true,
   "name": "PV_220P4"
  },
  {
   "global": true,
   "name": "PV_220P5"
  },
  {
   "global": true,
   "name": "PV_220P6"
  },
  {
   "global": true,
   "name": "PV_220P7"
  },
  {
   "global": true,
   "name": "PV_220P8"
  },
  {
   "global": true,
   "name": "PV_220P9"
  },
  {
   "global": true,
   "name": "PV_220P10"
  },
  {
   "global": true,
   "name": "PV_220P11"
  },
  {
   "global": true,
   "name": "PV_220P12"
  },
  {
   "global": true,
   "name": "PV_220P13"
  },
  {
   "global": true,
   "name": "PV_220P14"
  },
  {
   "global": true,
   "name": "PV_220P15"
  },
  {
   "global": true,
   "name": "PV_220P16"
  },
  {
   "global": true,
   "name": "PV_220P17"
  },
  {
   "global": true,
   "name": "PV_220P18"
  },
  {
   "global": true,
   "name": "PV_220P19"
  }
 ],
 "subscriptions": [],
 "period": 60,
 "key": ""
}