{
 "coreInit": "--federates=1",
 "coreName": "PV_249 Federate",
 "coreType": "zmq",
 "name": "PV_249",
 "publications": [
  {
   "global": true,
   "name": "PV_249P0"
  },
  {
   "global": true,
   "name": "PV_249P1"
  },
  {
   "global": true,
   "name": "PV_249P2"
  },
  {
   "global": true,
   "name": "PV_249P3"
  },
  {
   "global": true,
   "name": "PV_249P4"
  },
  {
   "global": true,
   "name": "PV_249P5"
  },
  {
   "global": true,
   "name": "PV_249P6"
  },
  {
   "global": true,
   "name": "PV_249P7"
  },
  {
   "global": true,
   "name": "PV_249P8"
  },
  {
   "global": true,
   "name": "PV_249P9"
  },
  {
   "global": true,
   "name": "PV_249P10"
  },
  {
   "global": true,
   "name": "PV_249P11"
  },
  {
   "global": true,
   "name": "PV_249P12"
  },
  {
   "global": true,
   "name": "PV_249P13"
  },
  {
   "global": true,
   "name": "PV_249P14"
  },
  {
   "global": true,
   "name": "PV_249P15"
  },
  {
   "global": true,
   "name": "PV_249P16"
  },
  {
   "global": true,
   "name": "PV_249P17"
  },
  {
   "global": true,
   "name": "PV_249P18"
  },
  {
   "global": true,
   "name": "PV_249P19"
  }
 ],
 "subscriptions": [],
 "period": 60,
 "key": ""
}