{
 "coreInit": "--federates=1",
 "coreName": "PV_244 Federate",
 "coreType": "zmq",
 "name": "PV_244",
 "publications": [
  {
   "global": true,
   "name": "PV_244P0"
  },
  {
   "global": true,
   "name": "PV_244P1"
  },
  {
   "global": true,
   "name": "PV_244P2"
  },
  {
   "global": true,
   "name": "PV_244P3"
  },
  {
   "global": true,
   "name": "PV_244P4"
  },
  {
   "global": true,
   "name": "PV_244P5"
  },
  {
   "global": true,
   "name": "PV_244P6"
  },
  {
   "global": true,
   "name": "PV_244P7"
  },
  {
   "global": true,
   "name": "PV_244P8"
  },
  {
   "global": true,
   "name": "PV_244P9"
  },
  {
   "global": true,
   "name": "PV_244P10"
  },
  {
   "global": true,
   "name": "PV_244P11"
  },
  {
   "global": true,
   "name": "PV_244P12"
  },
  {
   "global": true,
   "name": "PV_244P13"
  },
  {
   "global": true,
   "name": "PV_244P14"
  },
  {
   "global": true,
   "name": "PV_244P15"
  },
  {
   "global": true,
   "name": "PV_244P16"
  },
  {
   "global": true,
   "name": "PV_244P17"
  },
  {
   "global": true,
   "name": "PV_244P18"
  },
  {
   "global": true,
   "name": "PV_244P19"
  }
 ],
 "subscriptions": [],
 "period": 60,
 "key": ""
}