{
 "coreInit": "--federates=1",
 "coreName": "PV_263 Federate",
 "coreType": "zmq",
 "name": "PV_263",
 "publications": [
  {
   "global": true,
   "name": "PV_263P0"
  },
  {
   "global": true,
   "name": "PV_263P1"
  },
  {
   "global": true,
   "name": "PV_263P2"
  },
  {
   "global": true,
   "name": "PV_263P3"
  },
  {
   "global": true,
   "name": "PV_263P4"
  },
  {
   "global": true,
   "name": "PV_263P5"
  },
  {
   "global": true,
   "name": "PV_263P6"
  },
  {
   "global": true,
   "name": "PV_263P7"
  },
  {
   "global": true,
   "name": "PV_263P8"
  },
  {
   "global": true,
   "name": "PV_263P9"
  },
  {
   "global": true,
   "name": "PV_263P10"
  },
  {
   "global": true,
   "name": "PV_263P11"
  },
  {
   "global": true,
   "name": "PV_263P12"
  },
  {
   "global": true,
   "name": "PV_263P13"
  },
  {
   "global": true,
   "name": "PV_263P14"
  },
  {
   "global": true,
   "name": "PV_263P15"
  },
  {
   "global": true,
   "name": "PV_263P16"
  },
  {
   "global": true,
   "name": "PV_263P17"
  },
  {
   "global": true,
   "name": "PV_263P18"
  },
  {
   "global": true,
   "name": "PV_263P19"
  }
 ],
 "subscriptions": [],
 "period": 60,
 "key": ""
}