{
 "coreInit": "--federates=1",
 "coreName": "PV_224 Federate",
 "coreType": "zmq",
 "name": "PV_224",
 "publications": [
  {
   "global": true,
   "name": "PV_224P0"
  },
  {
   "global": true,
   "name": "PV_224P1"
  },
  {
   "global": true,
   "name": "PV_224P2"
  },
  {
   "global": true,
   "name": "PV_224P3"
  },
  {
   "global": true,
   "name": "PV_224P4"
  },
  {
   "global": true,
   "name": "PV_224P5"
  },
  {
   "global": true,
   "name": "PV_224P6"
  },
  {
   "global": true,
   "name": "PV_224P7"
  },
  {
   "global": true,
   "name": "PV_224P8"
  },
  {
   "global": true,
   "name": "PV_224P9"
  },
  {
   "global": true,
   "name": "PV_224P10"
  },
  {
   "global": true,
   "name": "PV_224P11"
  },
  {
   "global": true,
   "name": "PV_224P12"
  },
  {
   "global": true,
   "name": "PV_224P13"
  },
  {
   "global": true,
   "name": "PV_224P14"
  },
  {
   "global": true,
   "name": "PV_224P15"
  },
  {
   "global": true,
   "name": "PV_224P16"
  },
  {
   "global": true,
   "name": "PV_224P17"
  },
  {
   "global": true,
   "name": "PV_224P18"
  },
  {
   "global": true,
   "name": "PV_224P19"
  }
 ],
 "subscriptions": [],
 "period": 60,
 "key": ""
}