{
 "coreInit": "--federates=1",
 "coreName": "PV_241 Federate",
 "coreType": "zmq",
 "name": "PV_241",
 "publications": [
  {
   "global": true,
   "name": "PV_241P0"
  },
  {
   "global": true,
   "name": "PV_241P1"
  },
  {
   "global": true,
   "name": "PV_241P2"
  },
  {
   "global": true,
   "name": "PV_241P3"
  },
  {
   "global": true,
   "name": "PV_241P4"
  },
  {
   "global": true,
   "name": "PV_241P5"
  },
  {
   "global": true,
   "name": "PV_241P6"
  },
  {
   "global": true,
   "name": "PV_241P7"
  },
  {
   "global": true,
   "name": "PV_241P8"
  },
  {
   "global": true,
   "name": "PV_241P9"
  },
  {
   "global": true,
   "name": "PV_241P10"
  },
  {
   "global": true,
   "name": "PV_241P11"
  },
  {
   "global": true,
   "name": "PV_241P12"
  },
  {
   "global": true,
   "name": "PV_241P13"
  },
  {
   "global": true,
   "name": "PV_241P14"
  },
  {
   "global": true,
   "name": "PV_241P15"
  },
  {
   "global": true,
   "name": "PV_241P16"
  },
  {
   "global": true,
   "name": "PV_241P17"
  },
  {
   "global": true,
   "name": "PV_241P18"
  },
  {
   "global": true,
   "name": "PV_241P19"
  }
 ],
 "subscriptions": [],
 "period": 60,
 "key": ""
}