{
 "coreInit": "--federates=1",
 "coreName": "PV_27 Federate",
 "coreType": "zmq",
 "name": "PV_27",
 "publications": [
  {
   "global": true,
   "name": "PV_27P0"
  },
  {
   "global": true,
   "name": "PV_27P1"
  },
  {
   "global": true,
   "name": "PV_27P2"
  },
  {
   "global": true,
   "name": "PV_27P3"
  },
  {
   "global": true,
   "name": "PV_27P4"
  },
  {
   "global": true,
   "name": "PV_27P5"
  },
  {
   "global": true,
   "name": "PV_27P6"
  },
  {
   "global": true,
   "name": "PV_27P7"
  },
  {
   "global": true,
   "name": "PV_27P8"
  },
  {
   "global": true,
   "name": "PV_27P9"
  },
  {
   "global": true,
   "name": "PV_27P10"
  },
  {
   "global": true,
   "name": "PV_27P11"
  },
  {
   "global": true,
   "name": "PV_27P12"
  },
  {
   "global": true,
   "name": "PV_27P13"
  },
  {
   "global": true,
   "name": "PV_27P14"
  },
  {
   "global": true,
   "name": "PV_27P15"
  },
  {
   "global": true,
   "name": "PV_27P16"
  },
  {
   "global": true,
   "name": "PV_27P17"
  },
  {
   "global": true,
   "name": "PV_27P18"
  },
  {
   "global": true,
   "name": "PV_27P19"
  }
 ],
 "subscriptions": [],
 "period": 60,
 "key": ""
}