{
 "coreInit": "--federates=1",
 "coreName": "PV_231 Federate",
 "coreType": "zmq",
 "name": "PV_231",
 "publications": [
  {
   "global": true,
   "name": "PV_231P0"
  },
  {
   "global": true,
   "name": "PV_231P1"
  },
  {
   "global": true,
   "name": "PV_231P2"
  },
  {
   "global": true,
   "name": "PV_231P3"
  },
  {
   "global": true,
   "name": "PV_231P4"
  },
  {
   "global": true,
   "name": "PV_231P5"
  },
  {
   "global": true,
   "name": "PV_231P6"
  },
  {
   "global": true,
   "name": "PV_231P7"
  },
  {
   "global": true,
   "name": "PV_231P8"
  },
  {
   "global": true,
   "name": "PV_231P9"
  },
  {
   "global": true,
   "name": "PV_231P10"
  },
  {
   "global": true,
   "name": "PV_231P11"
  },
  {
   "global": true,
   "name": "PV_231P12"
  },
  {
   "global": true,
   "name": "PV_231P13"
  },
  {
   "global": true,
   "name": "PV_231P14"
  },
  {
   "global": true,
   "name": "PV_231P15"
  },
  {
   "global": true,
   "name": "PV_231P16"
  },
  {
   "global": true,
   "name": "PV_231P17"
  },
  {
   "global": true,
   "name": "PV_231P18"
  },
  {
   "global": true,
   "name": "PV_231P19"
  }
 ],
 "subscriptions": [],
 "period": 60,
 "key": ""
}