{
 "coreInit": "--federates=1",
 "coreName": "PV_229 Federate",
 "coreType": "zmq",
 "name": "PV_229",
 "publications": [
  {
   "global": true,
   "name": "PV_229P0"
  },
  {
   "global": true,
   "name": "PV_229P1"
  },
  {
   "global": true,
   "name": "PV_229P2"
  },
  {
   "global": true,
   "name": "PV_229P3"
  },
  {
   "global": true,
   "name": "PV_229P4"
  },
  {
   "global": true,
   "name": "PV_229P5"
  },
  {
   "global": true,
   "name": "PV_229P6"
  },
  {
   "global": true,
   "name": "PV_229P7"
  },
  {
   "global": true,
   "name": "PV_229P8"
  },
  {
   "global": true,
   "name": "PV_229P9"
  },
  {
   "global": true,
   "name": "PV_229P10"
  },
  {
   "global": true,
   "name": "PV_229P11"
  },
  {
   "global": true,
   "name": "PV_229P12"
  },
  {
   "global": true,
   "name": "PV_229P13"
  },
  {
   "global": true,
   "name": "PV_229P14"
  },
  {
   "global": true,
   "name": "PV_229P15"
  },
  {
   "global": true,
   "name": "PV_229P16"
  },
  {
   "global": true,
   "name": "PV_229P17"
  },
  {
   "global": true,
   "name": "PV_229P18"
  },
  {
   "global": true,
   "name": "PV_229P19"
  }
 ],
 "subscriptions": [],
 "period": 60,
 "key": ""
}