{
 "coreInit": "--federates=1",
 "coreName": "PV_334 Federate",
 "coreType": "zmq",
 "name": "PV_334",
 "publications": [
  {
   "global": true,
   "name": "PV_334P0"
  },
  {
   "global": true,
   "name": "PV_334P1"
  },
  {
   "global": true,
   "name": "PV_334P2"
  },
  {
   "global": true,
   "name": "PV_334P3"
  },
  {
   "global": true,
   "name": "PV_334P4"
  },
  {
   "global": true,
   "name": "PV_334P5"
  },
  {
   "global": true,
   "name": "PV_334P6"
  },
  {
   "global": true,
   "name": "PV_334P7"
  },
  {
   "global": true,
   "name": "PV_334P8"
  },
  {
   "global": true,
   "name": "PV_334P9"
  },
  {
   "global": true,
   "name": "PV_334P10"
  },
  {
   "global": true,
   "name": "PV_334P11"
  },
  {
   "global": true,
   "name": "PV_334P12"
  },
  {
   "global": true,
   "name": "PV_334P13"
  },
  {
   "global": true,
   "name": "PV_334P14"
  },
  {
   "global": true,
   "name": "PV_334P15"
  },
  {
   "global": true,
   "name": "PV_334P16"
  },
  {
   "global": true,
   "name": "PV_334P17"
  },
  {
   "global": true,
   "name": "PV_334P18"
  },
  {
   "global": true,
   "name": "PV_334P19"
  }
 ],
 "subscriptions": [],
 "period": 60,
 "key": ""
}