{
 "coreInit": "--federates=1",
 "coreName": "PV_303 Federate",
 "coreType": "zmq",
 "name": "PV_303",
 "publications": [
  {
   "global": true,
   "name": "PV_303P0"
  },
  {
   "global": true,
   "name": "PV_303P1"
  },
  {
   "global": true,
   "name": "PV_303P2"
  },
  {
   "global": true,
   "name": "PV_303P3"
  },
  {
   "global": true,
   "name": "PV_303P4"
  },
  {
   "global": true,
   "name": "PV_303P5"
  },
  {
   "global": true,
   "name": "PV_303P6"
  },
  {
   "global": true,
   "name": "PV_303P7"
  },
  {
   "global": true,
   "name": "PV_303P8"
  },
  {
   "global": true,
   "name": "PV_303P9"
  },
  {
   "global": true,
   "name": "PV_303P10"
  },
  {
   "global": true,
   "name": "PV_303P11"
  },
  {
   "global": true,
   "name": "PV_303P12"
  },
  {
   "global": true,
   "name": "PV_303P13"
  },
  {
   "global": true,
   "name": "PV_303P14"
  },
  {
   "global": true,
   "name": "PV_303P15"
  },
  {
   "global": true,
   "name": "PV_303P16"
  },
  {
   "global": true,
   "name": "PV_303P17"
  },
  {
   "global": true,
   "name": "PV_303P18"
  },
  {
   "global": true,
   "name": "PV_303P19"
  }
 ],
 "subscriptions": [],
 "period": 60,
 "key": ""
}