{
 "coreInit": "--federates=1",
 "coreName": "PV_337 Federate",
 "coreType": "zmq",
 "name": "PV_337",
 "publications": [
  {
   "global": true,
   "name": "PV_337P0"
  },
  {
   "global": true,
   "name": "PV_337P1"
  },
  {
   "global": true,
   "name": "PV_337P2"
  },
  {
   "global": true,
   "name": "PV_337P3"
  },
  {
   "global": true,
   "name": "PV_337P4"
  },
  {
   "global": true,
   "name": "PV_337P5"
  },
  {
   "global": true,
   "name": "PV_337P6"
  },
  {
   "global": true,
   "name": "PV_337P7"
  },
  {
   "global": true,
   "name": "PV_337P8"
  },
  {
   "global": true,
   "name": "PV_337P9"
  },
  {
   "global": true,
   "name": "PV_337P10"
  },
  {
   "global": true,
   "name": "PV_337P11"
  },
  {
   "global": true,
   "name": "PV_337P12"
  },
  {
   "global": true,
   "name": "PV_337P13"
  },
  {
   "global": true,
   "name": "PV_337P14"
  },
  {
   "global": true,
   "name": "PV_337P15"
  },
  {
   "global": true,
   "name": "PV_337P16"
  },
  {
   "global": true,
   "name": "PV_337P17"
  },
  {
   "global": true,
   "name": "PV_337P18"
  },
  {
   "global": true,
   "name": "PV_337P19"
  }
 ],
 "subscriptions": [],
 "period": 60,
 "key": ""
}