{
 "coreInit": "--federates=1",
 "coreName": "PV_317 Federate",
 "coreType": "zmq",
 "name": "PV_317",
 "publications": [
  {
   "global": true,
   "name": "PV_317P0"
  },
  {
   "global": true,
   "name": "PV_317P1"
  },
  {
   "global": true,
   "name": "PV_317P2"
  },
  {
   "global": true,
   "name": "PV_317P3"
  },
  {
   "global": true,
   "name": "PV_317P4"
  },
  {
   "global": true,
   "name": "PV_317P5"
  },
  {
   "global": true,
   "name": "PV_317P6"
  },
  {
   "global": true,
   "name": "PV_317P7"
  },
  {
   "global": true,
   "name": "PV_317P8"
  },
  {
   "global": true,
   "name": "PV_317P9"
  },
  {
   "global": true,
   "name": "PV_317P10"
  },
  {
   "global": true,
   "name": "PV_317P11"
  },
  {
   "global": true,
   "name": "PV_317P12"
  },
  {
   "global": true,
   "name": "PV_317P13"
  },
  {
   "global": true,
   "name": "PV_317P14"
  },
  {
   "global": true,
   "name": "PV_317P15"
  },
  {
   "global": true,
   "name": "PV_317P16"
  },
  {
   "global": true,
   "name": "PV_317P17"
  },
  {
   "global": true,
   "name": "PV_317P18"
  },
  {
   "global": true,
   "name": "PV_317P19"
  }
 ],
 "subscriptions": [],
 "period": 60,
 "key": ""
}