{
 "coreInit": "--federates=1",
 "coreName": "PV_389 Federate",
 "coreType": "zmq",
 "name": "PV_389",
 "publications": [
  {
   "global": true,
   "name": "PV_389P0"
  },
  {
   "global": true,
   "name": "PV_389P1"
  },
  {
   "global": true,
   "name": "PV_389P2"
  },
  {
   "global": true,
   "name": "PV_389P3"
  },
  {
   "global": true,
   "name": "PV_389P4"
  },
  {
   "global": true,
   "name": "PV_389P5"
  },
  {
   "global": true,
   "name": "PV_389P6"
  },
  {
   "global": true,
   "name": "PV_389P7"
  },
  {
   "global": true,
   "name": "PV_389P8"
  },
  {
   "global": true,
   "name": "PV_389P9"
  },
  {
   "global": true,
   "name": "PV_389P10"
  },
  {
   "global": true,
   "name": "PV_389P11"
  },
  {
   "global": true,
   "name": "PV_389P12"
  },
  {
   "global": true,
   "name": "PV_389P13"
  },
  {
   "global": true,
   "name": "PV_389P14"
  },
  {
   "global": true,
   "name": "PV_389P15"
  },
  {
   "global": true,
   "name": "PV_389P16"
  },
  {
   "global": true,
   "name": "PV_389P17"
  },
  {
   "global": true,
   "name": "PV_389P18"
  },
  {
   "global": true,
   "name": "PV_389P19"
  }
 ],
 "subscriptions": [],
 "period": 60,
 "key": ""
}