{
 "coreInit": "--federates=1",
 "coreName": "PV_359 Federate",
 "coreType": "zmq",
 "name": "PV_359",
 "publications": [
  {
   "global": true,
   "name": "PV_359P0"
  },
  {
   "global": true,
   "name": "PV_359P1"
  },
  {
   "global": true,
   "name": "PV_359P2"
  },
  {
   "global": true,
   "name": "PV_359P3"
  },
  {
   "global": true,
   "name": "PV_359P4"
  },
  {
   "global": true,
   "name": "PV_359P5"
  },
  {
   "global": true,
   "name": "PV_359P6"
  },
  {
   "global": true,
   "name": "PV_359P7"
  },
  {
   "global": true,
   "name": "PV_359P8"
  },
  {
   "global": true,
   "name": "PV_359P9"
  },
  {
   "global": true,
   "name": "PV_359P10"
  },
  {
   "global": true,
   "name": "PV_359P11"
  },
  {
   "global": true,
   "name": "PV_359P12"
  },
  {
   "global": true,
   "name": "PV_359P13"
  },
  {
   "global": true,
   "name": "PV_359P14"
  },
  {
   "global": true,
   "name": "PV_359P15"
  },
  {
   "global": true,
   "name": "PV_359P16"
  },
  {
   "global": true,
   "name": "PV_359P17"
  },
  {
   "global": true,
   "name": "PV_359P18"
  },
  {
   "global": true,
   "name": "PV_359P19"
  }
 ],
 "subscriptions": [],
 "period": 60,
 "key": ""
}