{
 "coreInit": "--federates=1",
 "coreName": "PV_307 Federate",
 "coreType": "zmq",
 "name": "PV_307",
 "publications": [
  {
   "global": true,
   "name": "PV_307P0"
  },
  {
   "global": true,
   "name": "PV_307P1"
  },
  {
   "global": true,
   "name": "PV_307P2"
  },
  {
   "global": true,
   "name": "PV_307P3"
  },
  {
   "global": true,
   "name": "PV_307P4"
  },
  {
   "global": true,
   "name": "PV_307P5"
  },
  {
   "global": true,
   "name": "PV_307P6"
  },
  {
   "global": true,
   "name": "PV_307P7"
  },
  {
   "global": true,
   "name": "PV_307P8"
  },
  {
   "global": true,
   "name": "PV_307P9"
  },
  {
   "global": true,
   "name": "PV_307P10"
  },
  {
   "global": true,
   "name": "PV_307P11"
  },
  {
   "global": true,
   "name": "PV_307P12"
  },
  {
   "global": true,
   "name": "PV_307P13"
  },
  {
   "global": true,
   "name": "PV_307P14"
  },
  {
   "global": true,
   "name": "PV_307P15"
  },
  {
   "global": true,
   "name": "PV_307P16"
  },
  {
   "global": true,
   "name": "PV_307P17"
  },
  {
   "global": true,
   "name": "PV_307P18"
  },
  {
   "global": true,
   "name": "PV_307P19"
  }
 ],
 "subscriptions": [],
 "period": 60,
 "key": ""
}