{
 "coreInit": "--federates=1",
 "coreName": "PV_379 Federate",
 "coreType": "zmq",
 "name": "PV_379",
 "publications": [
  {
   "global": true,
   "name": "PV_379P0"
  },
  {
   "global": true,
   "name": "PV_379P1"
  },
  {
   "global": true,
   "name": "PV_379P2"
  },
  {
   "global": true,
   "name": "PV_379P3"
  },
  {
   "global": true,
   "name": "PV_379P4"
  },
  {
   "global": true,
   "name": "PV_379P5"
  },
  {
   "global": true,
   "name": "PV_379P6"
  },
  {
   "global": true,
   "name": "PV_379P7"
  },
  {
   "global": true,
   "name": "PV_379P8"
  },
  {
   "global": true,
   "name": "PV_379P9"
  },
  {
   "global": true,
   "name": "PV_379P10"
  },
  {
   "global": true,
   "name": "PV_379P11"
  },
  {
   "global": true,
   "name": "PV_379P12"
  },
  {
   "global": true,
   "name": "PV_379P13"
  },
  {
   "global": true,
   "name": "PV_379P14"
  },
  {
   "global": true,
   "name": "PV_379P15"
  },
  {
   "global": true,
   "name": "PV_379P16"
  },
  {
   "global": true,
   "name": "PV_379P17"
  },
  {
   "global": true,
   "name": "PV_379P18"
  },
  {
   "global": true,
   "name": "PV_379P19"
  }
 ],
 "subscriptions": [],
 "period": 60,
 "key": ""
}