{
 "coreInit": "--federates=1",
 "coreName": "PV_30 Federate",
 "coreType": "zmq",
 "name": "PV_30",
 "publications": [
  {
   "global": true,
   "name": "PV_30P0"
  },
  {
   "global": true,
   "name": "PV_30P1"
  },
  {
   "global": true,
   "name": "PV_30P2"
  },
  {
   "global": true,
   "name": "PV_30P3"
  },
  {
   "global": true,
   "name": "PV_30P4"
  },
  {
   "global": true,
   "name": "PV_30P5"
  },
  {
   "global": true,
   "name": "PV_30P6"
  },
  {
   "global": true,
   "name": "PV_30P7"
  },
  {
   "global": true,
   "name": "PV_30P8"
  },
  {
   "global": true,
   "name": "PV_30P9"
  },
  {
   "global": true,
   "name": "PV_30P10"
  },
  {
   "global": true,
   "name": "PV_30P11"
  },
  {
   "global": true,
   "name": "PV_30P12"
  },
  {
   "global": true,
   "name": "PV_30P13"
  },
  {
   "global": true,
   "name": "PV_30P14"
  },
  {
   "global": true,
   "name": "PV_30P15"
  },
  {
   "global": true,
   "name": "PV_30P16"
  },
  {
   "global": true,
   "name": "PV_30P17"
  },
  {
   "global": true,
   "name": "PV_30P18"
  },
  {
   "global": true,
   "name": "PV_30P19"
  }
 ],
 "subscriptions": [],
 "period": 60,
 "key": ""
}