{
 "coreInit": "--federates=1",
 "coreName": "PV_336 Federate",
 "coreType": "zmq",
 "name": "PV_336",
 "publications": [
  {
   "global": true,
   "name": "PV_336P0"
  },
  {
   "global": true,
   "name": "PV_336P1"
  },
  {
   "global": true,
   "name": "PV_336P2"
  },
  {
   "global": true,
   "name": "PV_336P3"
  },
  {
   "global": true,
   "name": "PV_336P4"
  },
  {
   "global": true,
   "name": "PV_336P5"
  },
  {
   "global": true,
   "name": "PV_336P6"
  },
  {
   "global": true,
   "name": "PV_336P7"
  },
  {
   "global": true,
   "name": "PV_336P8"
  },
  {
   "global": true,
   "name": "PV_336P9"
  },
  {
   "global": true,
   "name": "PV_336P10"
  },
  {
   "global": true,
   "name": "PV_336P11"
  },
  {
   "global": true,
   "name": "PV_336P12"
  },
  {
   "global": true,
   "name": "PV_336P13"
  },
  {
   "global": true,
   "name": "PV_336P14"
  },
  {
   "global": true,
   "name": "PV_336P15"
  },
  {
   "global": true,
   "name": "PV_336P16"
  },
  {
   "global": true,
   "name": "PV_336P17"
  },
  {
   "global": true,
   "name": "PV_336P18"
  },
  {
   "global": true,
   "name": "PV_336P19"
  }
 ],
 "subscriptions": [],
 "period": 60,
 "key": ""
}