{
 "coreInit": "--federates=1",
 "coreName": "PV_338 Federate",
 "coreType": "zmq",
 "name": "PV_338",
 "publications": [
  {
   "global": true,
   "name": "PV_338P0"
  },
  {
   "global": true,
   "name": "PV_338P1"
  },
  {
   "global": true,
   "name": "PV_338P2"
  },
  {
   "global": true,
   "name": "PV_338P3"
  },
  {
   "global": true,
   "name": "PV_338P4"
  },
  {
   "global": true,
   "name": "PV_338P5"
  },
  {
   "global": true,
   "name": "PV_338P6"
  },
  {
   "global": true,
   "name": "PV_338P7"
  },
  {
   "global": true,
   "name": "PV_338P8"
  },
  {
   "global": true,
   "name": "PV_338P9"
  },
  {
   "global": true,
   "name": "PV_338P10"
  },
  {
   "global": true,
   "name": "PV_338P11"
  },
  {
   "global": true,
   "name": "PV_338P12"
  },
  {
   "global": true,
   "name": "PV_338P13"
  },
  {
   "global": true,
   "name": "PV_338P14"
  },
  {
   "global": true,
   "name": "PV_338P15"
  },
  {
   "global": true,
   "name": "PV_338P16"
  },
  {
   "global": true,
   "name": "PV_338P17"
  },
  {
   "global": true,
   "name": "PV_338P18"
  },
  {
   "global": true,
   "name": "PV_338P19"
  }
 ],
 "subscriptions": [],
 "period": 60,
 "key": ""
}