{
 "coreInit": "--federates=1",
 "coreName": "PV_321 Federate",
 "coreType": "zmq",
 "name": "PV_321",
 "publications": [
  {
   "global": true,
   "name": "PV_321P0"
  },
  {
   "global": true,
   "name": "PV_321P1"
  },
  {
   "global": true,
   "name": "PV_321P2"
  },
  {
   "global": true,
   "name": "PV_321P3"
  },
  {
   "global": true,
   "name": "PV_321P4"
  },
  {
   "global": true,
   "name": "PV_321P5"
  },
  {
   "global": true,
   "name": "PV_321P6"
  },
  {
   "global": true,
   "name": "PV_321P7"
  },
  {
   "global": true,
   "name": "PV_321P8"
  },
  {
   "global": true,
   "name": "PV_321P9"
  },
  {
   "global": true,
   "name": "PV_321P10"
  },
  {
   "global": true,
   "name": "PV_321P11"
  },
  {
   "global": true,
   "name": "PV_321P12"
  },
  {
   "global": true,
   "name": "PV_321P13"
  },
  {
   "global": true,
   "name": "PV_321P14"
  },
  {
   "global": true,
   "name": "PV_321P15"
  },
  {
   "global": true,
   "name": "PV_321P16"
  },
  {
   "global": true,
   "name": "PV_321P17"
  },
  {
   "global": true,
   "name": "PV_321P18"
  },
  {
   "global": true,
   "name": "PV_321P19"
  }
 ],
 "subscriptions": [],
 "period": 60,
 "key": ""
}