{
 "coreInit": "--federates=1",
 "coreName": "PV_371 Federate",
 "coreType": "zmq",
 "name": "PV_371",
 "publications": [
  {
   "global": true,
   "name": "PV_371P0"
  },
  {
   "global": true,
   "name": "PV_371P1"
  },
  {
   "global": true,
   "name": "PV_371P2"
  },
  {
   "global": true,
   "name": "PV_371P3"
  },
  {
   "global": true,
   "name": "PV_371P4"
  },
  {
   "global": true,
   "name": "PV_371P5"
  },
  {
   "global": true,
   "name": "PV_371P6"
  },
  {
   "global": true,
   "name": "PV_371P7"
  },
  {
   "global": true,
   "name": "PV_371P8"
  },
  {
   "global": true,
   "name": "PV_371P9"
  },
  {
   "global": true,
   "name": "PV_371P10"
  },
  {
   "global": true,
   "name": "PV_371P11"
  },
  {
   "global": true,
   "name": "PV_371P12"
  },
  {
   "global": true,
   "name": "PV_371P13"
  },
  {
   "global": true,
   "name": "PV_371P14"
  },
  {
   "global": true,
   "name": "PV_371P15"
  },
  {
   "global": true,
   "name": "PV_371P16"
  },
  {
   "global": true,
   "name": "PV_371P17"
  },
  {
   "global": true,
   "name": "PV_371P18"
  },
  {
   "global": true,
   "name": "PV_371P19"
  }
 ],
 "subscriptions": [],
 "period": 60,
 "key": ""
}