{
 "coreInit": "--federates=1",
 "coreName": "PV_332 Federate",
 "coreType": "zmq",
 "name": "PV_332",
 "publications": [
  {
   "global": true,
   "name": "PV_332P0"
  },
  {
   "global": true,
   "name": "PV_332P1"
  },
  {
   "global": true,
   "name": "PV_332P2"
  },
  {
   "global": true,
   "name": "PV_332P3"
  },
  {
   "global": true,
   "name": "PV_332P4"
  },
  {
   "global": true,
   "name": "PV_332P5"
  },
  {
   "global": true,
   "name": "PV_332P6"
  },
  {
   "global": true,
   "name": "PV_332P7"
  },
  {
   "global": true,
   "name": "PV_332P8"
  },
  {
   "global": true,
   "name": "PV_332P9"
  },
  {
   "global": true,
   "name": "PV_332P10"
  },
  {
   "global": true,
   "name": "PV_332P11"
  },
  {
   "global": true,
   "name": "PV_332P12"
  },
  {
   "global": true,
   "name": "PV_332P13"
  },
  {
   "global": true,
   "name": "PV_332P14"
  },
  {
   "global": true,
   "name": "PV_332P15"
  },
  {
   "global": true,
   "name": "PV_332P16"
  },
  {
   "global": true,
   "name": "PV_332P17"
  },
  {
   "global": true,
   "name": "PV_332P18"
  },
  {
   "global": true,
   "name": "PV_332P19"
  }
 ],
 "subscriptions": [],
 "period": 60,
 "key": ""
}