{
 "coreInit": "--federates=1",
 "coreName": "PV_355 Federate",
 "coreType": "zmq",
 "name": "PV_355",
 "publications": [
  {
   "global": true,
   "name": "PV_355P0"
  },
  {
   "global": true,
   "name": "PV_355P1"
  },
  {
   "global": true,
   "name": "PV_355P2"
  },
  {
   "global": true,
   "name": "PV_355P3"
  },
  {
   "global": true,
   "name": "PV_355P4"
  },
  {
   "global": true,
   "name": "PV_355P5"
  },
  {
   "global": true,
   "name": "PV_355P6"
  },
  {
   "global": true,
   "name": "PV_355P7"
  },
  {
   "global": true,
   "name": "PV_355P8"
  },
  {
   "global": true,
   "name": "PV_355P9"
  },
  {
   "global": true,
   "name": "PV_355P10"
  },
  {
   "global": true,
   "name": "PV_355P11"
  },
  {
   "global": true,
   "name": "PV_355P12"
  },
  {
   "global": true,
   "name": "PV_355P13"
  },
  {
   "global": true,
   "name": "PV_355P14"
  },
  {
   "global": true,
   "name": "PV_355P15"
  },
  {
   "global": true,
   "name": "PV_355P16"
  },
  {
   "global": true,
   "name": "PV_355P17"
  },
  {
   "global": true,
   "name": "PV_355P18"
  },
  {
   "global": true,
   "name": "PV_355P19"
  }
 ],
 "subscriptions": [],
 "period": 60,
 "key": ""
}