{
 "coreInit": "--federates=1",
 "coreName": "PV_319 Federate",
 "coreType": "zmq",
 "name": "PV_319",
 "publications": [
  {
   "global": true,
   "name": "PV_319P0"
  },
  {
   "global": true,
   "name": "PV_319P1"
  },
  {
   "global": true,
   "name": "PV_319P2"
  },
  {
   "global": true,
   "name": "PV_319P3"
  },
  {
   "global": true,
   "name": "PV_319P4"
  },
  {
   "global": true,
   "name": "PV_319P5"
  },
  {
   "global": true,
   "name": "PV_319P6"
  },
  {
   "global": true,
   "name": "PV_319P7"
  },
  {
   "global": true,
   "name": "PV_319P8"
  },
  {
   "global": true,
   "name": "PV_319P9"
  },
  {
   "global": true,
   "name": "PV_319P10"
  },
  {
   "global": true,
   "name": "PV_319P11"
  },
  {
   "global": true,
   "name": "PV_319P12"
  },
  {
   "global": true,
   "name": "PV_319P13"
  },
  {
   "global": true,
   "name": "PV_319P14"
  },
  {
   "global": true,
   "name": "PV_319P15"
  },
  {
   "global": true,
   "name": "PV_319P16"
  },
  {
   "global": true,
   "name": "PV_319P17"
  },
  {
   "global": true,
   "name": "PV_319P18"
  },
  {
   "global": true,
   "name": "PV_319P19"
  }
 ],
 "subscriptions": [],
 "period": 60,
 "key": ""
}