{
 "coreInit": "--federates=1",
 "coreName": "PV_372 Federate",
 "coreType": "zmq",
 "name": "PV_372",
 "publications": [
  {
   "global": true,
   "name": "PV_372P0"
  },
  {
   "global": true,
   "name": "PV_372P1"
  },
  {
   "global": true,
   "name": "PV_372P2"
  },
  {
   "global": true,
   "name": "PV_372P3"
  },
  {
   "global": true,
   "name": "PV_372P4"
  },
  {
   "global": true,
   "name": "PV_372P5"
  },
  {
   "global": true,
   "name": "PV_372P6"
  },
  {
   "global": true,
   "name": "PV_372P7"
  },
  {
   "global": true,
   "name": "PV_372P8"
  },
  {
   "global": true,
   "name": "PV_372P9"
  },
  {
   "global": true,
   "name": "PV_372P10"
  },
  {
   "global": true,
   "name": "PV_372P11"
  },
  {
   "global": true,
   "name": "PV_372P12"
  },
  {
   "global": true,
   "name": "PV_372P13"
  },
  {
   "global": true,
   "name": "PV_372P14"
  },
  {
   "global": true,
   "name": "PV_372P15"
  },
  {
   "global": true,
   "name": "PV_372P16"
  },
  {
   "global": true,
   "name": "PV_372P17"
  },
  {
   "global": true,
   "name": "PV_372P18"
  },
  {
   "global": true,
   "name": "PV_372P19"
  }
 ],
 "subscriptions": [],
 "period": 60,
 "key": ""
}