{
 "coreInit": "--federates=1",
 "coreName": "PV_364 Federate",
 "coreType": "zmq",
 "name": "PV_364",
 "publications": [
  {
   "global": true,
   "name": "PV_364P0"
  },
  {
   "global": true,
   "name": "PV_364P1"
  },
  {
   "global": true,
   "name": "PV_364P2"
  },
  {
   "global": true,
   "name": "PV_364P3"
  },
  {
   "global": true,
   "name": "PV_364P4"
  },
  {
   "global": true,
   "name": "PV_364P5"
  },
  {
   "global": true,
   "name": "PV_364P6"
  },
  {
   "global": true,
   "name": "PV_364P7"
  },
  {
   "global": true,
   "name": "PV_364P8"
  },
  {
   "global": true,
   "name": "PV_364P9"
  },
  {
   "global": true,
   "name": "PV_364P10"
  },
  {
   "global": true,
   "name": "PV_364P11"
  },
  {
   "global": true,
   "name": "PV_364P12"
  },
  {
   "global": true,
   "name": "PV_364P13"
  },
  {
   "global": true,
   "name": "PV_364P14"
  },
  {
   "global": true,
   "name": "PV_364P15"
  },
  {
   "global": true,
   "name": "PV_364P16"
  },
  {
   "global": true,
   "name": "PV_364P17"
  },
  {
   "global": true,
   "name": "PV_364P18"
  },
  {
   "global": true,
   "name": "PV_364P19"
  }
 ],
 "subscriptions": [],
 "period": 60,
 "key": ""
}