{
 "coreInit": "--federates=1",
 "coreName": "PV_335 Federate",
 "coreType": "zmq",
 "name": "PV_335",
 "publications": [
  {
   "global": true,
   "name": "PV_335P0"
  },
  {
   "global": true,
   "name": "PV_335P1"
  },
  {
   "global": true,
   "name": "PV_335P2"
  },
  {
   "global": true,
   "name": "PV_335P3"
  },
  {
   "global": true,
   "name": "PV_335P4"
  },
  {
   "global": true,
   "name": "PV_335P5"
  },
  {
   "global": true,
   "name": "PV_335P6"
  },
  {
   "global": true,
   "name": "PV_335P7"
  },
  {
   "global": true,
   "name": "PV_335P8"
  },
  {
   "global": true,
   "name": "PV_335P9"
  },
  {
   "global": true,
   "name": "PV_335P10"
  },
  {
   "global": true,
   "name": "PV_335P11"
  },
  {
   "global": true,
   "name": "PV_335P12"
  },
  {
   "global": true,
   "name": "PV_335P13"
  },
  {
   "global": true,
   "name": "PV_335P14"
  },
  {
   "global": true,
   "name": "PV_335P15"
  },
  {
   "global": true,
   "name": "PV_335P16"
  },
  {
   "global": true,
   "name": "PV_335P17"
  },
  {
   "global": true,
   "name": "PV_335P18"
  },
  {
   "global": true,
   "name": "PV_335P19"
  }
 ],
 "subscriptions": [],
 "period": 60,
 "key": ""
}