{
 "coreInit": "--federates=1",
 "coreName": "PV_322 Federate",
 "coreType": "zmq",
 "name": "PV_322",
 "publications": [
  {
   "global": true,
   "name": "PV_322P0"
  },
  {
   "global": true,
   "name": "PV_322P1"
  },
  {
   "global": true,
   "name": "PV_322P2"
  },
  {
   "global": true,
   "name": "PV_322P3"
  },
  {
   "global": true,
   "name": "PV_322P4"
  },
  {
   "global": true,
   "name": "PV_322P5"
  },
  {
   "global": true,
   "name": "PV_322P6"
  },
  {
   "global": true,
   "name": "PV_322P7"
  },
  {
   "global": true,
   "name": "PV_322P8"
  },
  {
   "global": true,
   "name": "PV_322P9"
  },
  {
   "global": true,
   "name": "PV_322P10"
  },
  {
   "global": true,
   "name": "PV_322P11"
  },
  {
   "global": true,
   "name": "PV_322P12"
  },
  {
   "global": true,
   "name": "PV_322P13"
  },
  {
   "global": true,
   "name": "PV_322P14"
  },
  {
   "global": true,
   "name": "PV_322P15"
  },
  {
   "global": true,
   "name": "PV_322P16"
  },
  {
   "global": true,
   "name": "PV_322P17"
  },
  {
   "global": true,
   "name": "PV_322P18"
  },
  {
   "global": true,
   "name": "PV_322P19"
  }
 ],
 "subscriptions": [],
 "period": 60,
 "key": ""
}