{
 "coreInit": "--federates=1",
 "coreName": "PV_37 Federate",
 "coreType": "zmq",
 "name": "PV_37",
 "publications": [
  {
   "global": true,
   "name": "PV_37P0"
  },
  {
   "global": true,
   "name": "PV_37P1"
  },
  {
   "global": true,
   "name": "PV_37P2"
  },
  {
   "global": true,
   "name": "PV_37P3"
  },
  {
   "global": true,
   "name": "PV_37P4"
  },
  {
   "global": true,
   "name": "PV_37P5"
  },
  {
   "global": true,
   "name": "PV_37P6"
  },
  {
   "global": true,
   "name": "PV_37P7"
  },
  {
   "global": true,
   "name": "PV_37P8"
  },
  {
   "global": true,
   "name": "PV_37P9"
  },
  {
   "global": true,
   "name": "PV_37P10"
  },
  {
   "global": true,
   "name": "PV_37P11"
  },
  {
   "global": true,
   "name": "PV_37P12"
  },
  {
   "global": true,
   "name": "PV_37P13"
  },
  {
   "global": true,
   "name": "PV_37P14"
  },
  {
   "global": true,
   "name": "PV_37P15"
  },
  {
   "global": true,
   "name": "PV_37P16"
  },
  {
   "global": true,
   "name": "PV_37P17"
  },
  {
   "global": true,
   "name": "PV_37P18"
  },
  {
   "global": true,
   "name": "PV_37P19"
  }
 ],
 "subscriptions": [],
 "period": 60,
 "key": ""
}