{
 "coreInit": "--federates=1",
 "coreName": "PV_473 Federate",
 "coreType": "zmq",
 "name": "PV_473",
 "publications": [
  {
   "global": true,
   "name": "PV_473P0"
  },
  {
   "global": true,
   "name": "PV_473P1"
  },
  {
   "global": true,
   "name": "PV_473P2"
  },
  {
   "global": true,
   "name": "PV_473P3"
  },
  {
   "global": true,
   "name": "PV_473P4"
  },
  {
   "global": true,
   "name": "PV_473P5"
  },
  {
   "global": true,
   "name": "PV_473P6"
  },
  {
   "global": true,
   "name": "PV_473P7"
  },
  {
   "global": true,
   "name": "PV_473P8"
  },
  {
   "global": true,
   "name": "PV_473P9"
  },
  {
   "global": true,
   "name": "PV_473P10"
  },
  {
   "global": true,
   "name": "PV_473P11"
  },
  {
   "global": true,
   "name": "PV_473P12"
  },
  {
   "global": true,
   "name": "PV_473P13"
  },
  {
   "global": true,
   "name": "PV_473P14"
  },
  {
   "global": true,
   "name": "PV_473P15"
  },
  {
   "global": true,
   "name": "PV_473P16"
  },
  {
   "global": true,
   "name": "PV_473P17"
  },
  {
   "global": true,
   "name": "PV_473P18"
  },
  {
   "global": true,
   "name": "PV_473P19"
  }
 ],
 "subscriptions": [],
 "period": 60,
 "key": ""
}