{
 "coreInit": "--federates=1",
 "coreName": "PV_489 Federate",
 "coreType": "zmq",
 "name": "PV_489",
 "publications": [
  {
   "global": true,
   "name": "PV_489P0"
  },
  {
   "global": true,
   "name": "PV_489P1"
  },
  {
   "global": true,
   "name": "PV_489P2"
  },
  {
   "global": true,
   "name": "PV_489P3"
  },
  {
   "global": true,
   "name": "PV_489P4"
  },
  {
   "global": true,
   "name": "PV_489P5"
  },
  {
   "global": true,
   "name": "PV_489P6"
  },
  {
   "global": true,
   "name": "PV_489P7"
  },
  {
   "global": true,
   "name": "PV_489P8"
  },
  {
   "global": true,
   "name": "PV_489P9"
  },
  {
   "global": true,
   "name": "PV_489P10"
  },
  {
   "global": true,
   "name": "PV_489P11"
  },
  {
   "global": true,
   "name": "PV_489P12"
  },
  {
   "global": true,
   "name": "PV_489P13"
  },
  {
   "global": true,
   "name": "PV_489P14"
  },
  {
   "global": true,
   "name": "PV_489P15"
  },
  {
   "global": true,
   "name": "PV_489P16"
  },
  {
   "global": true,
   "name": "PV_489P17"
  },
  {
   "global": true,
   "name": "PV_489P18"
  },
  {
   "global": true,
   "name": "PV_489P19"
  }
 ],
 "subscriptions": [],
 "period": 60,
 "key": ""
}