{
 "coreInit": "--federates=1",
 "coreName": "PV_444 Federate",
 "coreType": "zmq",
 "name": "PV_444",
 "publications": [
  {
   "global": true,
   "name": "PV_444P0"
  },
  {
   "global": true,
   "name": "PV_444P1"
  },
  {
   "global": true,
   "name": "PV_444P2"
  },
  {
   "global": true,
   "name": "PV_444P3"
  },
  {
   "global": true,
   "name": "PV_444P4"
  },
  {
   "global": true,
   "name": "PV_444P5"
  },
  {
   "global": true,
   "name": "PV_444P6"
  },
  {
   "global": true,
   "name": "PV_444P7"
  },
  {
   "global": true,
   "name": "PV_444P8"
  },
  {
   "global": true,
   "name": "PV_444P9"
  },
  {
   "global": true,
   "name": "PV_444P10"
  },
  {
   "global": true,
   "name": "PV_444P11"
  },
  {
   "global": true,
   "name": "PV_444P12"
  },
  {
   "global": true,
   "name": "PV_444P13"
  },
  {
   "global": true,
   "name": "PV_444P14"
  },
  {
   "global": true,
   "name": "PV_444P15"
  },
  {
   "global": true,
   "name": "PV_444P16"
  },
  {
   "global": true,
   "name": "PV_444P17"
  },
  {
   "global": true,
   "name": "PV_444P18"
  },
  {
   "global": true,
   "name": "PV_444P19"
  }
 ],
 "subscriptions": [],
 "period": 60,
 "key": ""
}