{
 "coreInit": "--federates=1",
 "coreName": "PV_437 Federate",
 "coreType": "zmq",
 "name": "PV_437",
 "publications": [
  {
   "global": true,
   "name": "PV_437P0"
  },
  {
   "global": true,
   "name": "PV_437P1"
  },
  {
   "global": true,
   "name": "PV_437P2"
  },
  {
   "global": true,
   "name": "PV_437P3"
  },
  {
   "global": true,
   "name": "PV_437P4"
  },
  {
   "global": true,
   "name": "PV_437P5"
  },
  {
   "global": true,
   "name": "PV_437P6"
  },
  {
   "global": true,
   "name": "PV_437P7"
  },
  {
   "global": true,
   "name": "PV_437P8"
  },
  {
   "global": true,
   "name": "PV_437P9"
  },
  {
   "global": true,
   "name": "PV_437P10"
  },
  {
   "global": true,
   "name": "PV_437P11"
  },
  {
   "global": true,
   "name": "PV_437P12"
  },
  {
   "global": true,
   "name": "PV_437P13"
  },
  {
   "global": true,
   "name": "PV_437P14"
  },
  {
   "global": true,
   "name": "PV_437P15"
  },
  {
   "global": true,
   "name": "PV_437P16"
  },
  {
   "global": true,
   "name": "PV_437P17"
  },
  {
   "global": true,
   "name": "PV_437P18"
  },
  {
   "global": true,
   "name": "PV_437P19"
  }
 ],
 "subscriptions": [],
 "period": 60,
 "key": ""
}