{
 "coreInit": "--federates=1",
 "coreName": "PV_452 Federate",
 "coreType": "zmq",
 "name": "PV_452",
 "publications": [
  {
   "global": true,
   "name": "PV_452P0"
  },
  {
   "global": true,
   "name": "PV_452P1"
  },
  {
   "global": true,
   "name": "PV_452P2"
  },
  {
   "global": true,
   "name": "PV_452P3"
  },
  {
   "global": true,
   "name": "PV_452P4"
  },
  {
   "global": true,
   "name": "PV_452P5"
  },
  {
   "global": true,
   "name": "PV_452P6"
  },
  {
   "global": true,
   "name": "PV_452P7"
  },
  {
   "global": true,
   "name": "PV_452P8"
  },
  {
   "global": true,
   "name": "PV_452P9"
  },
  {
   "global": true,
   "name": "PV_452P10"
  },
  {
   "global": true,
   "name": "PV_452P11"
  },
  {
   "global": true,
   "name": "PV_452P12"
  },
  {
   "global": true,
   "name": "PV_452P13"
  },
  {
   "global": true,
   "name": "PV_452P14"
  },
  {
   "global": true,
   "name": "PV_452P15"
  },
  {
   "global": true,
   "name": "PV_452P16"
  },
  {
   "global": true,
   "name": "PV_452P17"
  },
  {
   "global": true,
   "name": "PV_452P18"
  },
  {
   "global": true,
   "name": "PV_452P19"
  }
 ],
 "subscriptions": [],
 "period": 60,
 "key": ""
}