{
 "coreInit": "--federates=1",
 "coreName": "PV_439 Federate",
 "coreType": "zmq",
 "name": "PV_439",
 "publications": [
  {
   "global": true,
   "name": "PV_439P0"
  },
  {
   "global": true,
   "name": "PV_439P1"
  },
  {
   "global": true,
   "name": "PV_439P2"
  },
  {
   "global": true,
   "name": "PV_439P3"
  },
  {
   "global": true,
   "name": "PV_439P4"
  },
  {
   "global": true,
   "name": "PV_439P5"
  },
  {
   "global": true,
   "name": "PV_439P6"
  },
  {
   "global": true,
   "name": "PV_439P7"
  },
  {
   "global": true,
   "name": "PV_439P8"
  },
  {
   "global": true,
   "name": "PV_439P9"
  },
  {
   "global": true,
   "name": "PV_439P10"
  },
  {
   "global": true,
   "name": "PV_439P11"
  },
  {
   "global": true,
   "name": "PV_439P12"
  },
  {
   "global": true,
   "name": "PV_439P13"
  },
  {
   "global": true,
   "name": "PV_439P14"
  },
  {
   "global": true,
   "name": "PV_439P15"
  },
  {
   "global": true,
   "name": "PV_439P16"
  },
  {
   "global": true,
   "name": "PV_439P17"
  },
  {
   "global": true,
   "name": "PV_439P18"
  },
  {
   "global": true,
   "name": "PV_439P19"
  }
 ],
 "subscriptions": [],
 "period": 60,
 "key": ""
}