{
 "coreInit": "--federates=1",
 "coreName": "PV_490 Federate",
 "coreType": "zmq",
 "name": "PV_490",
 "publications": [
  {
   "global": true,
   "name": "PV_490P0"
  },
  {
   "global": true,
   "name": "PV_490P1"
  },
  {
   "global": true,
   "name": "PV_490P2"
  },
  {
   "global": true,
   "name": "PV_490P3"
  },
  {
   "global": true,
   "name": "PV_490P4"
  },
  {
   "global": true,
   "name": "PV_490P5"
  },
  {
   "global": true,
   "name": "PV_490P6"
  },
  {
   "global": true,
   "name": "PV_490P7"
  },
  {
   "global": true,
   "name": "PV_490P8"
  },
  {
   "global": true,
   "name": "PV_490P9"
  },
  {
   "global": true,
   "name": "PV_490P10"
  },
  {
   "global": true,
   "name": "PV_490P11"
  },
  {
   "global": true,
   "name": "PV_490P12"
  },
  {
   "global": true,
   "name": "PV_490P13"
  },
  {
   "global": true,
   "name": "PV_490P14"
  },
  {
   "global": true,
   "name": "PV_490P15"
  },
  {
   "global": true,
   "name": "PV_490P16"
  },
  {
   "global": true,
   "name": "PV_490P17"
  },
  {
   "global": true,
   "name": "PV_490P18"
  },
  {
   "global": true,
   "name": "PV_490P19"
  }
 ],
 "subscriptions": [],
 "period": 60,
 "key": ""
}