{
 "coreInit": "--federates=1",
 "coreName": "PV_448 Federate",
 "coreType": "zmq",
 "name": "PV_448",
 "publications": [
  {
   "global": true,
   "name": "PV_448P0"
  },
  {
   "global": true,
   "name": "PV_448P1"
  },
  {
   "global": true,
   "name": "PV_448P2"
  },
  {
   "global": true,
   "name": "PV_448P3"
  },
  {
   "global": true,
   "name": "PV_448P4"
  },
  {
   "global": true,
   "name": "PV_448P5"
  },
  {
   "global": true,
   "name": "PV_448P6"
  },
  {
   "global": true,
   "name": "PV_448P7"
  },
  {
   "global": true,
   "name": "PV_448P8"
  },
  {
   "global": true,
   "name": "PV_448P9"
  },
  {
   "global": true,
   "name": "PV_448P10"
  },
  {
   "global": true,
   "name": "PV_448P11"
  },
  {
   "global": true,
   "name": "PV_448P12"
  },
  {
   "global": true,
   "name": "PV_448P13"
  },
  {
   "global": true,
   "name": "PV_448P14"
  },
  {
   "global": true,
   "name": "PV_448P15"
  },
  {
   "global": true,
   "name": "PV_448P16"
  },
  {
   "global": true,
   "name": "PV_448P17"
  },
  {
   "global": true,
   "name": "PV_448P18"
  },
  {
   "global": true,
   "name": "PV_448P19"
  }
 ],
 "subscriptions": [],
 "period": 60,
 "key": ""
}