{
 "coreInit": "--federates=1",
 "coreName": "PV_468 Federate",
 "coreType": "zmq",
 "name": "PV_468",
 "publications": [
  {
   "global": true,
   "name": "PV_468P0"
  },
  {
   "global": true,
   "name": "PV_468P1"
  },
  {
   "global": true,
   "name": "PV_468P2"
  },
  {
   "global": true,
   "name": "PV_468P3"
  },
  {
   "global": true,
   "name": "PV_468P4"
  },
  {
   "global": true,
   "name": "PV_468P5"
  },
  {
   "global": true,
   "name": "PV_468P6"
  },
  {
   "global": true,
   "name": "PV_468P7"
  },
  {
   "global": true,
   "name": "PV_468P8"
  },
  {
   "global": true,
   "name": "PV_468P9"
  },
  {
   "global": true,
   "name": "PV_468P10"
  },
  {
   "global": true,
   "name": "PV_468P11"
  },
  {
   "global": true,
   "name": "PV_468P12"
  },
  {
   "global": true,
   "name": "PV_468P13"
  },
  {
   "global": true,
   "name": "PV_468P14"
  },
  {
   "global": true,
   "name": "PV_468P15"
  },
  {
   "global": true,
   "name": "PV_468P16"
  },
  {
   "global": true,
   "name": "PV_468P17"
  },
  {
   "global": true,
   "name": "PV_468P18"
  },
  {
   "global": true,
   "name": "PV_468P19"
  }
 ],
 "subscriptions": [],
 "period": 60,
 "key": ""
}