{
 "coreInit": "--federates=1",
 "coreName": "PV_46 Federate",
 "coreType": "zmq",
 "name": "PV_46",
 "publications": [
  {
   "global": true,
   "name": "PV_46P0"
  },
  {
   "global": true,
   "name": "PV_46P1"
  },
  {
   "global": true,
   "name": "PV_46P2"
  },
  {
   "global": true,
   "name": "PV_46P3"
  },
  {
   "global": true,
   "name": "PV_46P4"
  },
  {
   "global": true,
   "name": "PV_46P5"
  },
  {
   "global": true,
   "name": "PV_46P6"
  },
  {
   "global": true,
   "name": "PV_46P7"
  },
  {
   "global": true,
   "name": "PV_46P8"
  },
  {
   "global": true,
   "name": "PV_46P9"
  },
  {
   "global": true,
   "name": "PV_46P10"
  },
  {
   "global": true,
   "name": "PV_46P11"
  },
  {
   "global": true,
   "name": "PV_46P12"
  },
  {
   "global": true,
   "name": "PV_46P13"
  },
  {
   "global": true,
   "name": "PV_46P14"
  },
  {
   "global": true,
   "name": "PV_46P15"
  },
  {
   "global": true,
   "name": "PV_46P16"
  },
  {
   "global": true,
   "name": "PV_46P17"
  },
  {
   "global": true,
   "name": "PV_46P18"
  },
  {
   "global": true,
   "name": "PV_46P19"
  }
 ],
 "subscriptions": [],
 "period": 60,
 "key": ""
}