{
 "coreInit": "--federates=1",
 "coreName": "PV_49 Federate",
 "coreType": "zmq",
 "name": "PV_49",
 "publications": [
  {
   "global": true,
   "name": "PV_49P0"
  },
  {
   "global": true,
   "name": "PV_49P1"
  },
  {
   "global": true,
   "name": "PV_49P2"
  },
  {
   "global": true,
   "name": "PV_49P3"
  },
  {
   "global": true,
   "name": "PV_49P4"
  },
  {
   "global": true,
   "name": "PV_49P5"
  },
  {
   "global": true,
   "name": "PV_49P6"
  },
  {
   "global": true,
   "name": "PV_49P7"
  },
  {
   "global": true,
   "name": "PV_49P8"
  },
  {
   "global": true,
   "name": "PV_49P9"
  },
  {
   "global": true,
   "name": "PV_49P10"
  },
  {
   "global": true,
   "name": "PV_49P11"
  },
  {
   "global": true,
   "name": "PV_49P12"
  },
  {
   "global": true,
   "name": "PV_49P13"
  },
  {
   "global": true,
   "name": "PV_49P14"
  },
  {
   "global": true,
   "name": "PV_49P15"
  },
  {
   "global": true,
   "name": "PV_49P16"
  },
  {
   "global": true,
   "name": "PV_49P17"
  },
  {
   "global": true,
   "name": "PV_49P18"
  },
  {
   "global": true,
   "name": "PV_49P19"
  }
 ],
 "subscriptions": [],
 "period": 60,
 "key": ""
}