{
 "coreInit": "--federates=1",
 "coreName": "PV_409 Federate",
 "coreType": "zmq",
 "name": "PV_409",
 "publications": [
  {
   "global": true,
   "name": "PV_409P0"
  },
  {
   "global": true,
   "name": "PV_409P1"
  },
  {
   "global": true,
   "name": "PV_409P2"
  },
  {
   "global": true,
   "name": "PV_409P3"
  },
  {
   "global": true,
   "name": "PV_409P4"
  },
  {
   "global": true,
   "name": "PV_409P5"
  },
  {
   "global": true,
   "name": "PV_409P6"
  },
  {
   "global": true,
   "name": "PV_409P7"
  },
  {
   "global": true,
   "name": "PV_409P8"
  },
  {
   "global": true,
   "name": "PV_409P9"
  },
  {
   "global": true,
   "name": "PV_409P10"
  },
  {
   "global": true,
   "name": "PV_409P11"
  },
  {
   "global": true,
   "name": "PV_409P12"
  },
  {
   "global": true,
   "name": "PV_409P13"
  },
  {
   "global": true,
   "name": "PV_409P14"
  },
  {
   "global": true,
   "name": "PV_409P15"
  },
  {
   "global": true,
   "name": "PV_409P16"
  },
  {
   "global": true,
   "name": "PV_409P17"
  },
  {
   "global": true,
   "name": "PV_409P18"
  },
  {
   "global": true,
   "name": "PV_409P19"
  }
 ],
 "subscriptions": [],
 "period": 60,
 "key": ""
}