{
 "coreInit": "--federates=1",
 "coreName": "PV_45 Federate",
 "coreType": "zmq",
 "name": "PV_45",
 "publications": [
  {
   "global": true,
   "name": "PV_45P0"
  },
  {
   "global": true,
   "name": "PV_45P1"
  },
  {
   "global": true,
   "name": "PV_45P2"
  },
  {
   "global": true,
   "name": "PV_45P3"
  },
  {
   "global": true,
   "name": "PV_45P4"
  },
  {
   "global": true,
   "name": "PV_45P5"
  },
  {
   "global": true,
   "name": "PV_45P6"
  },
  {
   "global": true,
   "name": "PV_45P7"
  },
  {
   "global": true,
   "name": "PV_45P8"
  },
  {
   "global": true,
   "name": "PV_45P9"
  },
  {
   "global": true,
   "name": "PV_45P10"
  },
  {
   "global": true,
   "name": "PV_45P11"
  },
  {
   "global": true,
   "name": "PV_45P12"
  },
  {
   "global": true,
   "name": "PV_45P13"
  },
  {
   "global": true,
   "name": "PV_45P14"
  },
  {
   "global": true,
   "name": "PV_45P15"
  },
  {
   "global": true,
   "name": "PV_45P16"
  },
  {
   "global": true,
   "name": "PV_45P17"
  },
  {
   "global": true,
   "name": "PV_45P18"
  },
  {
   "global": true,
   "name": "PV_45P19"
  }
 ],
 "subscriptions": [],
 "period": 60,
 "key": ""
}