{
 "coreInit": "--federates=1",
 "coreName": "PV_450 Federate",
 "coreType": "zmq",
 "name": "PV_450",
 "publications": [
  {
   "global": true,
   "name": "PV_450P0"
  },
  {
   "global": true,
   "name": "PV_450P1"
  },
  {
   "global": true,
   "name": "PV_450P2"
  },
  {
   "global": true,
   "name": "PV_450P3"
  },
  {
   "global": true,
   "name": "PV_450P4"
  },
  {
   "global": true,
   "name": "PV_450P5"
  },
  {
   "global": true,
   "name": "PV_450P6"
  },
  {
   "global": true,
   "name": "PV_450P7"
  },
  {
   "global": true,
   "name": "PV_450P8"
  },
  {
   "global": true,
   "name": "PV_450P9"
  },
  {
   "global": true,
   "name": "PV_450P10"
  },
  {
   "global": true,
   "name": "PV_450P11"
  },
  {
   "global": true,
   "name": "PV_450P12"
  },
  {
   "global": true,
   "name": "PV_450P13"
  },
  {
   "global": true,
   "name": "PV_450P14"
  },
  {
   "global": true,
   "name": "PV_450P15"
  },
  {
   "global": true,
   "name": "PV_450P16"
  },
  {
   "global": true,
   "name": "PV_450P17"
  },
  {
   "global": true,
   "name": "PV_450P18"
  },
  {
   "global": true,
   "name": "PV_450P19"
  }
 ],
 "subscriptions": [],
 "period": 60,
 "key": ""
}