{
 "coreInit": "--federates=1",
 "coreName": "PV_446 Federate",
 "coreType": "zmq",
 "name": "PV_446",
 "publications": [
  {
   "global": true,
   "name": "PV_446P0"
  },
  {
   "global": true,
   "name": "PV_446P1"
  },
  {
   "global": true,
   "name": "PV_446P2"
  },
  {
   "global": true,
   "name": "PV_446P3"
  },
  {
   "global": true,
   "name": "PV_446P4"
  },
  {
   "global": true,
   "name": "PV_446P5"
  },
  {
   "global": true,
   "name": "PV_446P6"
  },
  {
   "global": true,
   "name": "PV_446P7"
  },
  {
   "global": true,
   "name": "PV_446P8"
  },
  {
   "global": true,
   "name": "PV_446P9"
  },
  {
   "global": true,
   "name": "PV_446P10"
  },
  {
   "global": true,
   "name": "PV_446P11"
  },
  {
   "global": true,
   "name": "PV_446P12"
  },
  {
   "global": true,
   "name": "PV_446P13"
  },
  {
   "global": true,
   "name": "PV_446P14"
  },
  {
   "global": true,
   "name": "PV_446P15"
  },
  {
   "global": true,
   "name": "PV_446P16"
  },
  {
   "global": true,
   "name": "PV_446P17"
  },
  {
   "global": true,
   "name": "PV_446P18"
  },
  {
   "global": true,
   "name": "PV_446P19"
  }
 ],
 "subscriptions": [],
 "period": 60,
 "key": ""
}