{
 "coreInit": "--federates=1",
 "coreName": "PV_483 Federate",
 "coreType": "zmq",
 "name": "PV_483",
 "publications": [
  {
   "global": true,
   "name": "PV_483P0"
  },
  {
   "global": true,
   "name": "PV_483P1"
  },
  {
   "global": true,
   "name": "PV_483P2"
  },
  {
   "global": true,
   "name": "PV_483P3"
  },
  {
   "global": true,
   "name": "PV_483P4"
  },
  {
   "global": true,
   "name": "PV_483P5"
  },
  {
   "global": true,
   "name": "PV_483P6"
  },
  {
   "global": true,
   "name": "PV_483P7"
  },
  {
   "global": true,
   "name": "PV_483P8"
  },
  {
   "global": true,
   "name": "PV_483P9"
  },
  {
   "global": true,
   "name": "PV_483P10"
  },
  {
   "global": true,
   "name": "PV_483P11"
  },
  {
   "global": true,
   "name": "PV_483P12"
  },
  {
   "global": true,
   "name": "PV_483P13"
  },
  {
   "global": true,
   "name": "PV_483P14"
  },
  {
   "global": true,
   "name": "PV_483P15"
  },
  {
   "global": true,
   "name": "PV_483P16"
  },
  {
   "global": true,
   "name": "PV_483P17"
  },
  {
   "global": true,
   "name": "PV_483P18"
  },
  {
   "global": true,
   "name": "PV_483P19"
  }
 ],
 "subscriptions": [],
 "period": 60,
 "key": ""
}