{
 "coreInit": "--federates=1",
 "coreName": "PV_43 Federate",
 "coreType": "zmq",
 "name": "PV_43",
 "publications": [
  {
   "global": true,
   "name": "PV_43P0"
  },
  {
   "global": true,
   "name": "PV_43P1"
  },
  {
   "global": true,
   "name": "PV_43P2"
  },
  {
   "global": true,
   "name": "PV_43P3"
  },
  {
   "global": true,
   "name": "PV_43P4"
  },
  {
   "global": true,
   "name": "PV_43P5"
  },
  {
   "global": true,
   "name": "PV_43P6"
  },
  {
   "global": true,
   "name": "PV_43P7"
  },
  {
   "global": true,
   "name": "PV_43P8"
  },
  {
   "global": true,
   "name": "PV_43P9"
  },
  {
   "global": true,
   "name": "PV_43P10"
  },
  {
   "global": true,
   "name": "PV_43P11"
  },
  {
   "global": true,
   "name": "PV_43P12"
  },
  {
   "global": true,
   "name": "PV_43P13"
  },
  {
   "global": true,
   "name": "PV_43P14"
  },
  {
   "global": true,
   "name": "PV_43P15"
  },
  {
   "global": true,
   "name": "PV_43P16"
  },
  {
   "global": true,
   "name": "PV_43P17"
  },
  {
   "global": true,
   "name": "PV_43P18"
  },
  {
   "global": true,
   "name": "PV_43P19"
  }
 ],
 "subscriptions": [],
 "period": 60,
 "key": ""
}