{
 "coreInit": "--federates=1",
 "coreName": "PV_466 Federate",
 "coreType": "zmq",
 "name": "PV_466",
 "publications": [
  {
   "global": true,
   "name": "PV_466P0"
  },
  {
   "global": true,
   "name": "PV_466P1"
  },
  {
   "global": true,
   "name": "PV_466P2"
  },
  {
   "global": true,
   "name": "PV_466P3"
  },
  {
   "global": true,
   "name": "PV_466P4"
  },
  {
   "global": true,
   "name": "PV_466P5"
  },
  {
   "global": true,
   "name": "PV_466P6"
  },
  {
   "global": true,
   "name": "PV_466P7"
  },
  {
   "global": true,
   "name": "PV_466P8"
  },
  {
   "global": true,
   "name": "PV_466P9"
  },
  {
   "global": true,
   "name": "PV_466P10"
  },
  {
   "global": true,
   "name": "PV_466P11"
  },
  {
   "global": true,
   "name": "PV_466P12"
  },
  {
   "global": true,
   "name": "PV_466P13"
  },
  {
   "global": true,
   "name": "PV_466P14"
  },
  {
   "global": true,
   "name": "PV_466P15"
  },
  {
   "global": true,
   "name": "PV_466P16"
  },
  {
   "global": true,
   "name": "PV_466P17"
  },
  {
   "global": true,
   "name": "PV_466P18"
  },
  {
   "global": true,
   "name": "PV_466P19"
  }
 ],
 "subscriptions": [],
 "period": 60,
 "key": ""
}