{
 "coreInit": "--federates=1",
 "coreName": "PV_431 Federate",
 "coreType": "zmq",
 "name": "PV_431",
 "publications": [
  {
   "global": true,
   "name": "PV_431P0"
  },
  {
   "global": true,
   "name": "PV_431P1"
  },
  {
   "global": true,
   "name": "PV_431P2"
  },
  {
   "global": true,
   "name": "PV_431P3"
  },
  {
   "global": true,
   "name": "PV_431P4"
  },
  {
   "global": true,
   "name": "PV_431P5"
  },
  {
   "global": true,
   "name": "PV_431P6"
  },
  {
   "global": true,
   "name": "PV_431P7"
  },
  {
   "global": true,
   "name": "PV_431P8"
  },
  {
   "global": true,
   "name": "PV_431P9"
  },
  {
   "global": true,
   "name": "PV_431P10"
  },
  {
   "global": true,
   "name": "PV_431P11"
  },
  {
   "global": true,
   "name": "PV_431P12"
  },
  {
   "global": true,
   "name": "PV_431P13"
  },
  {
   "global": true,
   "name": "PV_431P14"
  },
  {
   "global": true,
   "name": "PV_431P15"
  },
  {
   "global": true,
   "name": "PV_431P16"
  },
  {
   "global": true,
   "name": "PV_431P17"
  },
  {
   "global": true,
   "name": "PV_431P18"
  },
  {
   "global": true,
   "name": "PV_431P19"
  }
 ],
 "subscriptions": [],
 "period": 60,
 "key": ""
}