{
 "coreInit": "--federates=1",
 "coreName": "PV_460 Federate",
 "coreType": "zmq",
 "name": "PV_460",
 "publications": [
  {
   "global": true,
   "name": "PV_460P0"
  },
  {
   "global": true,
   "name": "PV_460P1"
  },
  {
   "global": true,
   "name": "PV_460P2"
  },
  {
   "global": true,
   "name": "PV_460P3"
  },
  {
   "global": true,
   "name": "PV_460P4"
  },
  {
   "global": true,
   "name": "PV_460P5"
  },
  {
   "global": true,
   "name": "PV_460P6"
  },
  {
   "global": true,
   "name": "PV_460P7"
  },
  {
   "global": true,
   "name": "PV_460P8"
  },
  {
   "global": true,
   "name": "PV_460P9"
  },
  {
   "global": true,
   "name": "PV_460P10"
  },
  {
   "global": true,
   "name": "PV_460P11"
  },
  {
   "global": true,
   "name": "PV_460P12"
  },
  {
   "global": true,
   "name": "PV_460P13"
  },
  {
   "global": true,
   "name": "PV_460P14"
  },
  {
   "global": true,
   "name": "PV_460P15"
  },
  {
   "global": true,
   "name": "PV_460P16"
  },
  {
   "global": true,
   "name": "PV_460P17"
  },
  {
   "global": true,
   "name": "PV_460P18"
  },
  {
   "global": true,
   "name": "PV_460P19"
  }
 ],
 "subscriptions": [],
 "period": 60,
 "key": ""
}