{
 "coreInit": "--federates=1",
 "coreName": "PV_477 Federate",
 "coreType": "zmq",
 "name": "PV_477",
 "publications": [
  {
   "global": true,
   "name": "PV_477P0"
  },
  {
   "global": true,
   "name": "PV_477P1"
  },
  {
   "global": true,
   "name": "PV_477P2"
  },
  {
   "global": true,
   "name": "PV_477P3"
  },
  {
   "global": true,
   "name": "PV_477P4"
  },
  {
   "global": true,
   "name": "PV_477P5"
  },
  {
   "global": true,
   "name": "PV_477P6"
  },
  {
   "global": true,
   "name": "PV_477P7"
  },
  {
   "global": true,
   "name": "PV_477P8"
  },
  {
   "global": true,
   "name": "PV_477P9"
  },
  {
   "global": true,
   "name": "PV_477P10"
  },
  {
   "global": true,
   "name": "PV_477P11"
  },
  {
   "global": true,
   "name": "PV_477P12"
  },
  {
   "global": true,
   "name": "PV_477P13"
  },
  {
   "global": true,
   "name": "PV_477P14"
  },
  {
   "global": true,
   "name": "PV_477P15"
  },
  {
   "global": true,
   "name": "PV_477P16"
  },
  {
   "global": true,
   "name": "PV_477P17"
  },
  {
   "global": true,
   "name": "PV_477P18"
  },
  {
   "global": true,
   "name": "PV_477P19"
  }
 ],
 "subscriptions": [],
 "period": 60,
 "key": ""
}