{
 "coreInit": "--federates=1",
 "coreName": "PV_42 Federate",
 "coreType": "zmq",
 "name": "PV_42",
 "publications": [
  {
   "global": true,
   "name": "PV_42P0"
  },
  {
   "global": true,
   "name": "PV_42P1"
  },
  {
   "global": true,
   "name": "PV_42P2"
  },
  {
   "global": true,
   "name": "PV_42P3"
  },
  {
   "global": true,
   "name": "PV_42P4"
  },
  {
   "global": true,
   "name": "PV_42P5"
  },
  {
   "global": true,
   "name": "PV_42P6"
  },
  {
   "global": true,
   "name": "PV_42P7"
  },
  {
   "global": true,
   "name": "PV_42P8"
  },
  {
   "global": true,
   "name": "PV_42P9"
  },
  {
   "global": true,
   "name": "PV_42P10"
  },
  {
   "global": true,
   "name": "PV_42P11"
  },
  {
   "global": true,
   "name": "PV_42P12"
  },
  {
   "global": true,
   "name": "PV_42P13"
  },
  {
   "global": true,
   "name": "PV_42P14"
  },
  {
   "global": true,
   "name": "PV_42P15"
  },
  {
   "global": true,
   "name": "PV_42P16"
  },
  {
   "global": true,
   "name": "PV_42P17"
  },
  {
   "global": true,
   "name": "PV_42P18"
  },
  {
   "global": true,
   "name": "PV_42P19"
  }
 ],
 "subscriptions": [],
 "period": 60,
 "key": ""
}