{
 "coreInit": "--federates=1",
 "coreName": "PV_417 Federate",
 "coreType": "zmq",
 "name": "PV_417",
 "publications": [
  {
   "global": true,
   "name": "PV_417P0"
  },
  {
   "global": true,
   "name": "PV_417P1"
  },
  {
   "global": true,
   "name": "PV_417P2"
  },
  {
   "global": true,
   "name": "PV_417P3"
  },
  {
   "global": true,
   "name": "PV_417P4"
  },
  {
   "global": true,
   "name": "PV_417P5"
  },
  {
   "global": true,
   "name": "PV_417P6"
  },
  {
   "global": true,
   "name": "PV_417P7"
  },
  {
   "global": true,
   "name": "PV_417P8"
  },
  {
   "global": true,
   "name": "PV_417P9"
  },
  {
   "global": true,
   "name": "PV_417P10"
  },
  {
   "global": true,
   "name": "PV_417P11"
  },
  {
   "global": true,
   "name": "PV_417P12"
  },
  {
   "global": true,
   "name": "PV_417P13"
  },
  {
   "global": true,
   "name": "PV_417P14"
  },
  {
   "global": true,
   "name": "PV_417P15"
  },
  {
   "global": true,
   "name": "PV_417P16"
  },
  {
   "global": true,
   "name": "PV_417P17"
  },
  {
   "global": true,
   "name": "PV_417P18"
  },
  {
   "global": true,
   "name": "PV_417P19"
  }
 ],
 "subscriptions": [],
 "period": 60,
 "key": ""
}