{
 "coreInit": "--federates=1",
 "coreName": "PV_406 Federate",
 "coreType": "zmq",
 "name": "PV_406",
 "publications": [
  {
   "global": true,
   "name": "PV_406P0"
  },
  {
   "global": true,
   "name": "PV_406P1"
  },
  {
   "global": true,
   "name": "PV_406P2"
  },
  {
   "global": true,
   "name": "PV_406P3"
  },
  {
   "global": true,
   "name": "PV_406P4"
  },
  {
   "global": true,
   "name": "PV_406P5"
  },
  {
   "global": true,
   "name": "PV_406P6"
  },
  {
   "global": true,
   "name": "PV_406P7"
  },
  {
   "global": true,
   "name": "PV_406P8"
  },
  {
   "global": true,
   "name": "PV_406P9"
  },
  {
   "global": true,
   "name": "PV_406P10"
  },
  {
   "global": true,
   "name": "PV_406P11"
  },
  {
   "global": true,
   "name": "PV_406P12"
  },
  {
   "global": true,
   "name": "PV_406P13"
  },
  {
   "global": true,
   "name": "PV_406P14"
  },
  {
   "global": true,
   "name": "PV_406P15"
  },
  {
   "global": true,
   "name": "PV_406P16"
  },
  {
   "global": true,
   "name": "PV_406P17"
  },
  {
   "global": true,
   "name": "PV_406P18"
  },
  {
   "global": true,
   "name": "PV_406P19"
  }
 ],
 "subscriptions": [],
 "period": 60,
 "key": ""
}