{
 "coreInit": "--federates=1",
 "coreName": "PV_491 Federate",
 "coreType": "zmq",
 "name": "PV_491",
 "publications": [
  {
   "global": true,
   "name": "PV_491P0"
  },
  {
   "global": true,
   "name": "PV_491P1"
  },
  {
   "global": true,
   "name": "PV_491P2"
  },
  {
   "global": true,
   "name": "PV_491P3"
  },
  {
   "global": true,
   "name": "PV_491P4"
  },
  {
   "global": true,
   "name": "PV_491P5"
  },
  {
   "global": true,
   "name": "PV_491P6"
  },
  {
   "global": true,
   "name": "PV_491P7"
  },
  {
   "global": true,
   "name": "PV_491P8"
  },
  {
   "global": true,
   "name": "PV_491P9"
  },
  {
   "global": true,
   "name": "PV_491P10"
  },
  {
   "global": true,
   "name": "PV_491P11"
  },
  {
   "global": true,
   "name": "PV_491P12"
  },
  {
   "global": true,
   "name": "PV_491P13"
  },
  {
   "global": true,
   "name": "PV_491P14"
  },
  {
   "global": true,
   "name": "PV_491P15"
  },
  {
   "global": true,
   "name": "PV_491P16"
  },
  {
   "global": true,
   "name": "PV_491P17"
  },
  {
   "global": true,
   "name": "PV_491P18"
  },
  {
   "global": true,
   "name": "PV_491P19"
  }
 ],
 "subscriptions": [],
 "period": 60,
 "key": ""
}