{
 "coreInit": "--federates=1",
 "coreName": "PV_48 Federate",
 "coreType": "zmq",
 "name": "PV_48",
 "publications": [
  {
   "global": true,
   "name": "PV_48P0"
  },
  {
   "global": true,
   "name": "PV_48P1"
  },
  {
   "global": true,
   "name": "PV_48P2"
  },
  {
   "global": true,
   "name": "PV_48P3"
  },
  {
   "global": true,
   "name": "PV_48P4"
  },
  {
   "global": true,
   "name": "PV_48P5"
  },
  {
   "global": true,
   "name": "PV_48P6"
  },
  {
   "global": true,
   "name": "PV_48P7"
  },
  {
   "global": true,
   "name": "PV_48P8"
  },
  {
   "global": true,
   "name": "PV_48P9"
  },
  {
   "global": true,
   "name": "PV_48P10"
  },
  {
   "global": true,
   "name": "PV_48P11"
  },
  {
   "global": true,
   "name": "PV_48P12"
  },
  {
   "global": true,
   "name": "PV_48P13"
  },
  {
   "global": true,
   "name": "PV_48P14"
  },
  {
   "global": true,
   "name": "PV_48P15"
  },
  {
   "global": true,
   "name": "PV_48P16"
  },
  {
   "global": true,
   "name": "PV_48P17"
  },
  {
   "global": true,
   "name": "PV_48P18"
  },
  {
   "global": true,
   "name": "PV_48P19"
  }
 ],
 "subscriptions": [],
 "period": 60,
 "key": ""
}