{
 "coreInit": "--federates=1",
 "coreName": "PV_418 Federate",
 "coreType": "zmq",
 "name": "PV_418",
 "publications": [
  {
   "global": true,
   "name": "PV_418P0"
  },
  {
   "global": true,
   "name": "PV_418P1"
  },
  {
   "global": true,
   "name": "PV_418P2"
  },
  {
   "global": true,
   "name": "PV_418P3"
  },
  {
   "global": true,
   "name": "PV_418P4"
  },
  {
   "global": true,
   "name": "PV_418P5"
  },
  {
   "global": true,
   "name": "PV_418P6"
  },
  {
   "global": true,
   "name": "PV_418P7"
  },
  {
   "global": true,
   "name": "PV_418P8"
  },
  {
   "global": true,
   "name": "PV_418P9"
  },
  {
   "global": true,
   "name": "PV_418P10"
  },
  {
   "global": true,
   "name": "PV_418P11"
  },
  {
   "global": true,
   "name": "PV_418P12"
  },
  {
   "global": true,
   "name": "PV_418P13"
  },
  {
   "global": true,
   "name": "PV_418P14"
  },
  {
   "global": true,
   "name": "PV_418P15"
  },
  {
   "global": true,
   "name": "PV_418P16"
  },
  {
   "global": true,
   "name": "PV_418P17"
  },
  {
   "global": true,
   "name": "PV_418P18"
  },
  {
   "global": true,
   "name": "PV_418P19"
  }
 ],
 "subscriptions": [],
 "period": 60,
 "key": ""
}