{
 "coreInit": "--federates=1",
 "coreName": "PV_44 Federate",
 "coreType": "zmq",
 "name": "PV_44",
 "publications": [
  {
   "global": true,
   "name": "PV_44P0"
  },
  {
   "global": true,
   "name": "PV_44P1"
  },
  {
   "global": true,
   "name": "PV_44P2"
  },
  {
   "global": true,
   "name": "PV_44P3"
  },
  {
   "global": true,
   "name": "PV_44P4"
  },
  {
   "global": true,
   "name": "PV_44P5"
  },
  {
   "global": true,
   "name": "PV_44P6"
  },
  {
   "global": true,
   "name": "PV_44P7"
  },
  {
   "global": true,
   "name": "PV_44P8"
  },
  {
   "global": true,
   "name": "PV_44P9"
  },
  {
   "global": true,
   "name": "PV_44P10"
  },
  {
   "global": true,
   "name": "PV_44P11"
  },
  {
   "global": true,
   "name": "PV_44P12"
  },
  {
   "global": true,
   "name": "PV_44P13"
  },
  {
   "global": true,
   "name": "PV_44P14"
  },
  {
   "global": true,
   "name": "PV_44P15"
  },
  {
   "global": true,
   "name": "PV_44P16"
  },
  {
   "global": true,
   "name": "PV_44P17"
  },
  {
   "global": true,
   "name": "PV_44P18"
  },
  {
   "global": true,
   "name": "PV_44P19"
  }
 ],
 "subscriptions": [],
 "period": 60,
 "key": ""
}