{
 "coreInit": "--federates=1",
 "coreName": "PV_464 Federate",
 "coreType": "zmq",
 "name": "PV_464",
 "publications": [
  {
   "global": true,
   "name": "PV_464P0"
  },
  {
   "global": true,
   "name": "PV_464P1"
  },
  {
   "global": true,
   "name": "PV_464P2"
  },
  {
   "global": true,
   "name": "PV_464P3"
  },
  {
   "global": true,
   "name": "PV_464P4"
  },
  {
   "global": true,
   "name": "PV_464P5"
  },
  {
   "global": true,
   "name": "PV_464P6"
  },
  {
   "global": true,
   "name": "PV_464P7"
  },
  {
   "global": true,
   "name": "PV_464P8"
  },
  {
   "global": true,
   "name": "PV_464P9"
  },
  {
   "global": true,
   "name": "PV_464P10"
  },
  {
   "global": true,
   "name": "PV_464P11"
  },
  {
   "global": true,
   "name": "PV_464P12"
  },
  {
   "global": true,
   "name": "PV_464P13"
  },
  {
   "global": true,
   "name": "PV_464P14"
  },
  {
   "global": true,
   "name": "PV_464P15"
  },
  {
   "global": true,
   "name": "PV_464P16"
  },
  {
   "global": true,
   "name": "PV_464P17"
  },
  {
   "global": true,
   "name": "PV_464P18"
  },
  {
   "global": true,
   "name": "PV_464P19"
  }
 ],
 "subscriptions": [],
 "period": 60,
 "key": ""
}