{
 "coreInit": "--federates=1",
 "coreName": "PV_63 Federate",
 "coreType": "zmq",
 "name": "PV_63",
 "publications": [
  {
   "global": true,
   "name": "PV_63P0"
  },
  {
   "global": true,
   "name": "PV_63P1"
  },
  {
   "global": true,
   "name": "PV_63P2"
  },
  {
   "global": true,
   "name": "PV_63P3"
  },
  {
   "global": true,
   "name": "PV_63P4"
  },
  {
   "global": true,
   "name": "PV_63P5"
  },
  {
   "global": true,
   "name": "PV_63P6"
  },
  {
   "global": true,
   "name": "PV_63P7"
  },
  {
   "global": true,
   "name": "PV_63P8"
  },
  {
   "global": true,
   "name": "PV_63P9"
  },
  {
   "global": true,
   "name": "PV_63P10"
  },
  {
   "global": true,
   "name": "PV_63P11"
  },
  {
   "global": true,
   "name": "PV_63P12"
  },
  {
   "global": true,
   "name": "PV_63P13"
  },
  {
   "global": true,
   "name": "PV_63P14"
  },
  {
   "global": true,
   "name": "PV_63P15"
  },
  {
   "global": true,
   "name": "PV_63P16"
  },
  {
   "global": true,
   "name": "PV_63P17"
  },
  {
   "global": true,
   "name": "PV_63P18"
  },
  {
   "global": true,
   "name": "PV_63P19"
  }
 ],
 "subscriptions": [],
 "period": 60,
 "key": ""
}