{
 "coreInit": "--federates=1",
 "coreName": "PV_67 Federate",
 "coreType": "zmq",
 "name": "PV_67",
 "publications": [
  {
   "global": true,
   "name": "PV_67P0"
  },
  {
   "global": true,
   "name": "PV_67P1"
  },
  {
   "global": true,
   "name": "PV_67P2"
  },
  {
   "global": true,
   "name": "PV_67P3"
  },
  {
   "global": true,
   "name": "PV_67P4"
  },
  {
   "global": true,
   "name": "PV_67P5"
  },
  {
   "global": true,
   "name": "PV_67P6"
  },
  {
   "global": true,
   "name": "PV_67P7"
  },
  {
   "global": true,
   "name": "PV_67P8"
  },
  {
   "global": true,
   "name": "PV_67P9"
  },
  {
   "global": true,
   "name": "PV_67P10"
  },
  {
   "global": true,
   "name": "PV_67P11"
  },
  {
   "global": true,
   "name": "PV_67P12"
  },
  {
   "global": true,
   "name": "PV_67P13"
  },
  {
   "global": true,
   "name": "PV_67P14"
  },
  {
   "global": true,
   "name": "PV_67P15"
  },
  {
   "global": true,
   "name": "PV_67P16"
  },
  {
   "global": true,
   "name": "PV_67P17"
  },
  {
   "global": true,
   "name": "PV_67P18"
  },
  {
   "global": true,
   "name": "PV_67P19"
  }
 ],
 "subscriptions": [],
 "period": 60,
 "key": ""
}