{
 "coreInit": "--federates=1",
 "coreName": "PV_74 Federate",
 "coreType": "zmq",
 "name": "PV_74",
 "publications": [
  {
   "global": true,
   "name": "PV_74P0"
  },
  {
   "global": true,
   "name": "PV_74P1"
  },
  {
   "global": true,
   "name": "PV_74P2"
  },
  {
   "global": true,
   "name": "PV_74P3"
  },
  {
   "global": true,
   "name": "PV_74P4"
  },
  {
   "global": true,
   "name": "PV_74P5"
  },
  {
   "global": true,
   "name": "PV_74P6"
  },
  {
   "global": true,
   "name": "PV_74P7"
  },
  {
   "global": true,
   "name": "PV_74P8"
  },
  {
   "global": true,
   "name": "PV_74P9"
  },
  {
   "global": true,
   "name": "PV_74P10"
  },
  {
   "global": true,
   "name": "PV_74P11"
  },
  {
   "global": true,
   "name": "PV_74P12"
  },
  {
   "global": true,
   "name": "PV_74P13"
  },
  {
   "global": true,
   "name": "PV_74P14"
  },
  {
   "global": true,
   "name": "PV_74P15"
  },
  {
   "global": true,
   "name": "PV_74P16"
  },
  {
   "global": true,
   "name": "PV_74P17"
  },
  {
   "global": true,
   "name": "PV_74P18"
  },
  {
   "global": true,
   "name": "PV_74P19"
  }
 ],
 "subscriptions": [],
 "period": 60,
 "key": ""
}