{
 "coreInit": "--federates=1",
 "coreName": "PV_71 Federate",
 "coreType": "zmq",
 "name": "PV_71",
 "publications": [
  {
   "global": true,
   "name": "PV_71P0"
  },
  {
   "global": true,
   "name": "PV_71P1"
  },
  {
   "global": true,
   "name": "PV_71P2"
  },
  {
   "global": true,
   "name": "PV_71P3"
  },
  {
   "global": true,
   "name": "PV_71P4"
  },
  {
   "global": true,
   "name": "PV_71P5"
  },
  {
   "global": true,
   "name": "PV_71P6"
  },
  {
   "global": true,
   "name": "PV_71P7"
  },
  {
   "global": true,
   "name": "PV_71P8"
  },
  {
   "global": true,
   "name": "PV_71P9"
  },
  {
   "global": true,
   "name": "PV_71P10"
  },
  {
   "global": true,
   "name": "PV_71P11"
  },
  {
   "global": true,
   "name": "PV_71P12"
  },
  {
   "global": true,
   "name": "PV_71P13"
  },
  {
   "global": true,
   "name": "PV_71P14"
  },
  {
   "global": true,
   "name": "PV_71P15"
  },
  {
   "global": true,
   "name": "PV_71P16"
  },
  {
   "global": true,
   "name": "PV_71P17"
  },
  {
   "global": true,
   "name": "PV_71P18"
  },
  {
   "global": true,
   "name": "PV_71P19"
  }
 ],
 "subscriptions": [],
 "period": 60,
 "key": ""
}