{
 "coreInit": "--federates=1",
 "coreName": "PV_72 Federate",
 "coreType": "zmq",
 "name": "PV_72",
 "publications": [
  {
   "global": true,
   "name": "PV_72P0"
  },
  {
   "global": true,
   "name": "PV_72P1"
  },
  {
   "global": true,
   "name": "PV_72P2"
  },
  {
   "global": true,
   "name": "PV_72P3"
  },
  {
   "global": true,
   "name": "PV_72P4"
  },
  {
   "global": true,
   "name": "PV_72P5"
  },
  {
   "global": true,
   "name": "PV_72P6"
  },
  {
   "global": true,
   "name": "PV_72P7"
  },
  {
   "global": true,
   "name": "PV_72P8"
  },
  {
   "global": true,
   "name": "PV_72P9"
  },
  {
   "global": true,
   "name": "PV_72P10"
  },
  {
   "global": true,
   "name": "PV_72P11"
  },
  {
   "global": true,
   "name": "PV_72P12"
  },
  {
   "global": true,
   "name": "PV_72P13"
  },
  {
   "global": true,
   "name": "PV_72P14"
  },
  {
   "global": true,
   "name": "PV_72P15"
  },
  {
   "global": true,
   "name": "PV_72P16"
  },
  {
   "global": true,
   "name": "PV_72P17"
  },
  {
   "global": true,
   "name": "PV_72P18"
  },
  {
   "global": true,
   "name": "PV_72P19"
  }
 ],
 "subscriptions": [],
 "period": 60,
 "key": ""
}