{
 "coreInit": "--federates=1",
 "coreName": "PV_80 Federate",
 "coreType": "zmq",
 "name": "PV_80",
 "publications": [
  {
   "global": true,
   "name": "PV_80P0"
  },
  {
   "global": true,
   "name": "PV_80P1"
  },
  {
   "global": true,
   "name": "PV_80P2"
  },
  {
   "global": true,
   "name": "PV_80P3"
  },
  {
   "global": true,
   "name": "PV_80P4"
  },
  {
   "global": true,
   "name": "PV_80P5"
  },
  {
   "global": true,
   "name": "PV_80P6"
  },
  {
   "global": true,
   "name": "PV_80P7"
  },
  {
   "global": true,
   "name": "PV_80P8"
  },
  {
   "global": true,
   "name": "PV_80P9"
  },
  {
   "global": true,
   "name": "PV_80P10"
  },
  {
   "global": true,
   "name": "PV_80P11"
  },
  {
   "global": true,
   "name": "PV_80P12"
  },
  {
   "global": true,
   "name": "PV_80P13"
  },
  {
   "global": true,
   "name": "PV_80P14"
  },
  {
   "global": true,
   "name": "PV_80P15"
  },
  {
   "global": true,
   "name": "PV_80P16"
  },
  {
   "global": true,
   "name": "PV_80P17"
  },
  {
   "global": true,
   "name": "PV_80P18"
  },
  {
   "global": true,
   "name": "PV_80P19"
  }
 ],
 "subscriptions": [],
 "period": 60,
 "key": ""
}