{
 "coreInit": "--federates=1",
 "coreName": "PV_81 Federate",
 "coreType": "zmq",
 "name": "PV_81",
 "publications": [
  {
   "global": true,
   "name": "PV_81P0"
  },
  {
   "global": true,
   "name": "PV_81P1"
  },
  {
   "global": true,
   "name": "PV_81P2"
  },
  {
   "global": true,
   "name": "PV_81P3"
  },
  {
   "global": true,
   "name": "PV_81P4"
  },
  {
   "global": true,
   "name": "PV_81P5"
  },
  {
   "global": true,
   "name": "PV_81P6"
  },
  {
   "global": true,
   "name": "PV_81P7"
  },
  {
   "global": true,
   "name": "PV_81P8"
  },
  {
   "global": true,
   "name": "PV_81P9"
  },
  {
   "global": true,
   "name": "PV_81P10"
  },
  {
   "global": true,
   "name": "PV_81P11"
  },
  {
   "global": true,
   "name": "PV_81P12"
  },
  {
   "global": true,
   "name": "PV_81P13"
  },
  {
   "global": true,
   "name": "PV_81P14"
  },
  {
   "global": true,
   "name": "PV_81P15"
  },
  {
   "global": true,
   "name": "PV_81P16"
  },
  {
   "global": true,
   "name": "PV_81P17"
  },
  {
   "global": true,
   "name": "PV_81P18"
  },
  {
   "global": true,
   "name": "PV_81P19"
  }
 ],
 "subscriptions": [],
 "period": 60,
 "key": ""
}