{
 "coreInit": "--federates=1",
 "coreName": "PV_85 Federate",
 "coreType": "zmq",
 "name": "PV_85",
 "publications": [
  {
   "global": true,
   "name": "PV_85P0"
  },
  {
   "global": true,
   "name": "PV_85P1"
  },
  {
   "global": true,
   "name": "PV_85P2"
  },
  {
   "global": true,
   "name": "PV_85P3"
  },
  {
   "global": true,
   "name": "PV_85P4"
  },
  {
   "global": true,
   "name": "PV_85P5"
  },
  {
   "global": true,
   "name": "PV_85P6"
  },
  {
   "global": true,
   "name": "PV_85P7"
  },
  {
   "global": true,
   "name": "PV_85P8"
  },
  {
   "global": true,
   "name": "PV_85P9"
  },
  {
   "global": true,
   "name": "PV_85P10"
  },
  {
   "global": true,
   "name": "PV_85P11"
  },
  {
   "global": true,
   "name": "PV_85P12"
  },
  {
   "global": true,
   "name": "PV_85P13"
  },
  {
   "global": true,
   "name": "PV_85P14"
  },
  {
   "global": true,
   "name": "PV_85P15"
  },
  {
   "global": true,
   "name": "PV_85P16"
  },
  {
   "global": true,
   "name": "PV_85P17"
  },
  {
   "global": true,
   "name": "PV_85P18"
  },
  {
   "global": true,
   "name": "PV_85P19"
  }
 ],
 "subscriptions": [],
 "period": 60,
 "key": ""
}