{
 "coreInit": "--federates=1",
 "coreName": "ResidentialLoads_280 Federate",
 "coreType": "zmq",
 "name": "ResidentialLoads_280",
 "publications": [
  {
   "global": true,
   "name": "ResidentialLoads_280P_out0"
  },
  {
   "global": true,
   "name": "ResidentialLoads_280P_out1"
  },
  {
   "global": true,
   "name": "ResidentialLoads_280P_out2"
  },
  {
   "global": true,
   "name": "ResidentialLoads_280P_out3"
  },
  {
   "global": true,
   "name": "ResidentialLoads_280P_out4"
  },
  {
   "global": true,
   "name": "ResidentialLoads_280P_out5"
  },
  {
   "global": true,
   "name": "ResidentialLoads_280P_out6"
  },
  {
   "global": true,
   "name": "ResidentialLoads_280P_out7"
  },
  {
   "global": true,
   "name": "ResidentialLoads_280P_out8"
  },
  {
   "global": true,
   "name": "ResidentialLoads_280P_out9"
  },
  {
   "global": true,
   "name": "ResidentialLoads_280P_out10"
  },
  {
   "global": true,
   "name": "ResidentialLoads_280P_out11"
  },
  {
   "global": true,
   "name": "ResidentialLoads_280P_out12"
  },
  {
   "global": true,
   "name": "ResidentialLoads_280P_out13"
  },
  {
   "global": true,
   "name": "ResidentialLoads_280P_out14"
  },
  {
   "global": true,
   "name": "ResidentialLoads_280P_out15"
  },
  {
   "global": true,
   "name": "ResidentialLoads_280P_out16"
  },
  {
   "global": true,
   "name": "ResidentialLoads_280P_out17"
  },
  {
   "global": true,
   "name": "ResidentialLoads_280P_out18"
  },
  {
   "global": true,
   "name": "ResidentialLoads_280P_out19"
  },
  {
   "global": true,
   "name": "ResidentialLoads_280P_out20"
  },
  {
   "global": true,
   "name": "ResidentialLoads_280P_out21"
  },
  {
   "global": true,
   "name": "ResidentialLoads_280P_out22"
  },
  {
   "global": true,
   "name": "ResidentialLoads_280P_out23"
  },
  {
   "global": true,
   "name": "ResidentialLoads_280P_out24"
  },
  {
   "global": true,
   "name": "ResidentialLoads_280P_out25"
  },
  {
   "global": true,
   "name": "ResidentialLoads_280P_out26"
  },
  {
   "global": true,
   "name": "ResidentialLoads_280P_out27"
  },
  {
   "global": true,
   "name": "ResidentialLoads_280P_out28"
  },
  {
   "global": true,
   "name": "ResidentialLoads_280P_out29"
  },
  {
   "global": true,
   "name": "ResidentialLoads_280P_out30"
  },
  {
   "global": true,
   "name": "ResidentialLoads_280P_out31"
  },
  {
   "global": true,
   "name": "ResidentialLoads_280P_out32"
  },
  {
   "global": true,
   "name": "ResidentialLoads_280P_out33"
  },
  {
   "global": true,
   "name": "ResidentialLoads_280P_out34"
  },
  {
   "global": true,
   "name": "ResidentialLoads_280P_out35"
  },
  {
   "global": true,
   "name": "ResidentialLoads_280P_out36"
  }
 ],
 "subscriptions": [],
 "period": 60,
 "key": ""
}